# Blender v2.79 (sub 0) OBJ File: 'Ruins.blend'
# www.blender.org
o Block_4_Model_Cube.072
v -0.213680 -0.114263 0.243823
v -0.213450 -0.091629 0.265635
v -0.234373 -0.091192 0.243156
v -0.213601 0.091935 0.266023
v -0.213826 0.114793 0.243969
v -0.235586 0.091820 0.243629
v -0.214063 -0.115244 -0.241467
v -0.235314 -0.091559 -0.240784
v -0.214673 -0.092852 -0.266032
v -0.212686 0.111870 -0.240090
v -0.213135 0.091469 -0.262091
v -0.235727 0.091875 -0.240945
v 0.215029 -0.113677 0.243594
v 0.235151 -0.090881 0.242844
v 0.214824 -0.091427 0.265117
v 0.214656 0.112878 0.243222
v 0.214787 0.091544 0.265022
v 0.234716 0.090865 0.242674
v 0.215554 -0.115023 -0.241381
v 0.215505 -0.092108 -0.264124
v 0.235358 -0.090961 -0.240186
v 0.214994 0.113744 -0.240822
v 0.235361 0.091117 -0.240187
v 0.215629 0.092386 -0.264442
v -0.213334 -0.113299 0.001369
v -0.234900 -0.091422 0.001369
v -0.214062 0.115211 0.001369
v -0.236278 0.092148 0.001369
v 0.215596 -0.114953 0.001369
v 0.234797 -0.090727 0.001369
v 0.215677 0.115304 0.001369
v 0.235230 0.091061 0.001369
v 0.000788 -0.115679 -0.241724
v 0.000788 -0.093245 -0.266705
v 0.000788 0.115453 -0.241566
v 0.000788 0.092520 -0.264580
v 0.000788 -0.113111 0.243399
v 0.000788 -0.091586 0.265437
v 0.000788 0.115168 0.244187
v 0.000788 0.092078 0.266252
v 0.000788 0.114031 0.001369
v 0.000788 -0.115106 0.001369
vt 0.118954 0.837451
vt 0.118956 0.812770
vt 0.146799 0.812849
vt 0.146764 0.837475
vt 0.266809 0.940688
vt 0.266928 0.961820
vt 0.242321 0.961858
vt 0.242251 0.940937
vt 0.458543 0.938510
vt 0.458522 0.959397
vt 0.430739 0.959370
vt 0.430726 0.938444
vt 0.034594 0.837396
vt 0.034696 0.862057
vt 0.006834 0.862129
vt 0.006721 0.837481
vt 0.265468 0.399167
vt 0.244368 0.399127
vt 0.244584 0.371475
vt 0.265416 0.371486
vt 0.087278 0.837422
vt 0.066049 0.837314
vt 0.066086 0.812701
vt 0.087297 0.812799
vt 0.241579 0.937481
vt 0.238827 0.940414
vt 0.241678 0.965389
vt 0.238777 0.962449
vt 0.268965 0.370879
vt 0.266039 0.367805
vt 0.241268 0.370873
vt 0.244008 0.368082
vt 0.292015 0.937229
vt 0.294778 0.940111
vt 0.291377 0.940660
vt 0.292115 0.964848
vt 0.291451 0.961510
vt 0.294778 0.962016
vt 0.486779 0.935149
vt 0.489650 0.938045
vt 0.486164 0.938615
vt 0.486719 0.962734
vt 0.486145 0.959346
vt 0.489655 0.959947
vt 0.269028 0.399160
vt 0.268994 0.427132
vt 0.265419 0.427043
vt 0.240649 0.399093
vt 0.091076 0.837426
vt 0.091000 0.862077
vt 0.087134 0.862129
vt 0.062402 0.837311
vt 0.062364 0.812778
vt 0.458563 0.934932
vt 0.458531 0.963002
vt 0.430667 0.962801
vt 0.266789 0.937069
vt 0.266961 0.965571
vt 0.430627 0.934931
vt 0.240649 0.427147
vt 0.244318 0.427077
vt 0.062428 0.861764
vt 0.091053 0.812786
vt 0.118914 0.862054
vt 0.034549 0.812731
vt 0.065940 0.861823
vt 0.006772 0.812917
vt 0.146783 0.862128
vn -0.0014 -1.0000 0.0038
vn 0.4274 -0.9040 0.0031
vn 0.3736 -0.8605 0.3462
vn 0.0000 -0.9224 0.3862
vn 0.0016 -0.3825 0.9239
vn 0.0027 0.3753 0.9269
vn -0.3502 0.3312 0.8762
vn -0.3540 -0.3377 0.8722
vn 0.9413 -0.3375 0.0013
vn 0.9383 0.3458 0.0013
vn 0.8936 0.3151 0.3198
vn 0.8954 -0.3077 0.3216
vn -0.0001 1.0000 -0.0008
vn -0.3830 0.9237 -0.0030
vn -0.3516 0.8686 0.3491
vn 0.0030 0.9212 0.3891
vn -0.9286 -0.3711 0.0016
vn -0.9248 0.3804 -0.0009
vn -0.8715 0.3574 -0.3355
vn -0.8903 -0.3279 -0.3157
vn 0.0010 -0.3952 -0.9186
vn -0.0029 0.3980 -0.9174
vn 0.3844 0.3538 -0.8527
vn 0.3878 -0.3428 -0.8556
vn -0.3576 -0.8684 0.3434
vn -0.8843 -0.3282 0.3319
vn -0.8828 0.3275 0.3367
vn -0.3629 -0.8771 -0.3145
vn -0.3699 -0.3497 -0.8607
vn -0.3286 0.8827 -0.3359
vn -0.3475 0.3626 -0.8647
vn 0.3648 -0.3367 0.8680
vn 0.3729 0.8623 0.3426
vn 0.3668 0.3389 0.8663
vn 0.3866 -0.8607 -0.3311
vn 0.9054 -0.2994 -0.3009
vn 0.3750 0.8680 -0.3254
vn 0.9013 0.3139 -0.2983
vn -0.3985 -0.9171 0.0030
vn 0.0004 -0.9315 -0.3637
vn -0.0038 0.9277 -0.3733
vn 0.4194 0.9078 0.0015
s 1
f 42/1/1 29/2/2 13/3/3 37/4/4
f 38/5/5 40/6/6 4/7/7 2/8/8
f 30/9/9 32/10/10 18/11/11 14/12/12
f 41/13/13 27/14/14 5/15/15 39/16/16
f 26/17/17 28/18/18 12/19/19 8/20/20
f 34/21/21 36/22/22 24/23/23 20/24/24
f 1/25/25 2/8/8 3/26/26
f 4/7/7 5/27/15 6/28/27
f 7/29/28 8/20/20 9/30/29
f 10/31/30 11/32/31 12/19/19
f 13/33/3 14/34/12 15/35/32
f 16/36/33 17/37/34 18/38/11
f 19/39/35 20/40/24 21/41/36
f 22/42/37 23/43/38 24/44/23
f 25/45/39 1/46/25 3/47/26 26/17/17
f 2/8/8 4/7/7 6/28/27 3/26/26
f 27/48/14 10/31/30 12/19/19 28/18/18
f 11/32/31 9/30/29 8/20/20 12/19/19
f 33/49/40 7/50/28 9/51/29 34/21/21
f 35/52/41 22/53/37 24/23/23 36/22/22
f 23/43/38 21/41/36 20/40/24 24/44/23
f 29/54/2 19/39/35 21/41/36 30/9/9
f 31/55/42 16/56/33 18/11/11 32/10/10
f 17/37/34 15/35/32 14/34/12 18/38/11
f 37/57/4 13/33/3 15/35/32 38/5/5
f 39/58/16 5/27/15 4/7/7 40/6/6
f 22/42/37 31/55/42 32/10/10 23/43/38
f 13/59/3 29/54/2 30/9/9 14/12/12
f 5/60/15 27/48/14 28/18/18 6/61/27
f 7/29/28 25/45/39 26/17/17 8/20/20
f 3/47/26 6/61/27 28/18/18 26/17/17
f 35/52/41 10/62/30 27/14/14 41/13/13
f 21/41/36 23/43/38 32/10/10 30/9/9
f 33/49/40 19/63/35 29/2/2 42/1/1
f 7/50/28 33/49/40 42/1/1 25/64/39
f 22/53/37 35/52/41 41/13/13 31/65/42
f 16/36/33 39/58/16 40/6/6 17/37/34
f 1/25/25 37/57/4 38/5/5 2/8/8
f 10/62/30 35/52/41 36/22/22 11/66/31
f 19/63/35 33/49/40 34/21/21 20/24/24
f 9/51/29 11/66/31 36/22/22 34/21/21
f 31/65/42 41/13/13 39/16/16 16/67/33
f 15/35/32 17/37/34 40/6/6 38/5/5
f 25/64/39 42/1/1 37/4/4 1/68/25
