# Blender v2.79 (sub 0) OBJ File: 'Landscape.blend'
# www.blender.org
o Plane_Plane.001
v 3.405681 -0.089576 -3.114469
v 2.934671 -0.126844 -2.069428
v 3.690158 -0.101004 -2.173187
v 2.665223 -0.102504 -0.902554
v 3.496178 -0.067680 -0.391041
v 2.281171 -0.079254 -3.275069
v 2.858883 -0.095283 -2.987264
v 2.611462 -0.129519 -2.334732
v 2.354653 -0.122145 -1.348149
v 2.763285 -0.111759 -1.500422
v 2.134419 -0.147013 -0.469020
v 1.357858 -0.061671 -3.359201
v 0.905189 -0.083948 -2.766467
v 1.670723 -0.115217 -2.544478
v 1.385302 -0.121036 -1.801096
v 1.651124 -0.185619 -0.887801
v 1.493161 -0.154041 -0.140342
v 0.368086 -0.070010 -2.937202
v 0.397547 -0.048452 -2.130290
v 0.520554 -0.089610 -1.374071
v 0.135087 -0.098414 -0.821170
v 1.311579 -0.178647 -0.930980
v 0.690461 -0.139430 -0.187731
v 3.909954 -0.068964 -3.458644
v 5.218789 -0.044718 -3.253418
v 6.248997 0.041564 -2.400756
v 6.767482 0.033354 -2.468602
v 6.556893 0.048546 -2.306651
v 6.965028 -0.002597 -2.502090
v 4.464406 -0.071661 -1.984501
v 4.119049 -0.096009 -2.597030
v 4.554101 -0.064387 -3.089912
v 5.520008 -0.006104 -1.995086
v 5.983615 0.006650 -1.760731
v 6.947764 0.020167 -1.745645
v 5.511078 0.002798 -1.336789
v 6.217798 -0.004666 -0.982168
v 6.968336 0.024542 -1.436966
v 7.247518 -0.000368 -1.228034
v 5.285237 -0.004614 0.037550
v 5.157390 -0.018425 -0.729065
v 5.820318 -0.023489 -0.395561
v 7.058414 0.018013 -0.262763
v 6.758596 0.020856 -0.110798
v 7.292953 -0.007708 -0.058898
v 3.698660 -0.092652 -4.253792
v 4.176243 -0.099478 -4.668976
v 3.499886 -0.016369 -5.721699
v 3.372134 -0.010997 -6.485714
v 3.298853 -0.025831 -6.693834
v 4.372368 -0.074490 -3.938418
v 4.690020 -0.062565 -4.206118
v 4.141493 -0.055453 -5.374381
v 4.049007 -0.068901 -6.297463
v 6.078840 0.023485 -3.178459
v 5.578282 0.008585 -4.021861
v 4.706991 -0.044114 -5.209981
v 4.863747 -0.071004 -5.703020
v 4.886026 -0.044861 -5.490483
v 4.410123 -0.049578 -5.794683
v 6.396777 0.025957 -3.682799
v 5.797960 0.010628 -4.731972
v 6.555856 -0.005349 -3.734804
v 6.061255 0.025535 -3.976684
v 5.935438 -0.018888 -4.759008
v 5.617723 0.016326 -4.757107
v 5.391897 -0.023325 -5.298469
v 5.476542 -0.051509 -5.350312
v 2.197767 -0.062763 -4.107918
v 1.095051 -0.051290 -4.431416
v 2.972326 -0.070619 -4.671863
v 2.502160 -0.041876 -5.294465
v 0.995841 -0.053674 -5.439243
v 0.421274 -0.067616 -5.032066
v 0.194724 -0.037622 -5.729957
v 2.444304 -0.031748 -5.502575
v 0.645539 -0.063688 -6.471012
v 1.584583 -0.034743 -5.966846
v 0.877074 -0.048482 -6.049387
v 2.780225 -0.003057 -6.684021
v 2.543439 -0.029351 -6.937477
v 1.607156 -0.059120 -6.897004
v 0.846721 -0.075196 -6.963239
v 1.196248 -0.095755 -7.115601
v 0.218149 -0.066199 -7.218673
v -3.542891 -0.022242 -3.393515
v -4.275671 0.071327 -2.113404
v -4.122105 0.041549 -0.462065
v -4.636698 -0.024387 -3.313855
v -4.802409 0.061786 -2.023439
v -5.370378 0.022548 -2.560999
v -5.079718 0.045361 -1.299451
v -5.349243 0.049703 -1.178168
v -5.358190 0.026793 -0.256086
v -5.083821 0.015104 -0.162780
v -5.919088 0.023953 -2.739051
v -5.777136 0.023736 -1.964732
v -6.574592 0.032998 -2.234093
v -6.090222 0.079782 -0.501756
v -6.226651 0.093246 -0.723516
v -6.784266 0.024407 -2.398554
v -6.977818 -0.003520 -2.461298
v -6.523485 0.041297 -3.341783
v -7.174550 0.011208 -1.708546
v -6.982730 0.037850 -1.679817
v -6.621089 0.059233 -1.412386
v -7.047107 0.031543 -0.426919
v -7.251821 -0.014578 -0.457203
v -6.765031 0.054132 -0.281729
v -6.709252 0.074591 -0.693917
v -3.094895 0.000726 -2.706339
v -2.333684 -0.048169 -3.303124
v -1.118092 -0.018875 -3.314543
v -1.586328 -0.013834 -2.735175
v -0.275752 -0.066183 -3.380167
v -3.046028 0.048841 -1.980862
v -2.268014 0.010792 -2.496386
v -1.865877 -0.001988 -2.465168
v -1.283367 -0.038579 -1.963825
v -3.596366 0.036125 -0.909318
v -2.427062 0.030109 -1.557646
v -2.941937 0.051299 -1.275423
v -1.430134 0.009842 -1.002936
v 0.014495 -0.060737 -1.478619
v -3.315261 0.067307 -0.141917
v -2.656414 0.065711 -0.551304
v -2.080912 0.061088 -0.709285
v -1.037632 0.016465 -0.538220
v -0.638991 -0.012801 -0.850708
v -0.861927 0.035304 0.152738
v -2.603830 -0.098757 -5.029678
v -2.900570 -0.090426 -5.160839
v -2.810208 -0.046140 -6.658938
v -2.766774 -0.045694 -6.410975
v -2.807441 -0.060662 -6.820970
v -2.481082 -0.059328 -3.899350
v -1.736827 -0.079667 -4.315053
v -1.927624 -0.079510 -5.219616
v -1.743748 -0.016565 -6.860079
v -1.868401 -0.044749 -7.069795
v -0.901776 -0.122808 -4.566862
v -1.092663 -0.088766 -5.443804
v -1.166914 -0.019763 -6.915047
v -0.482204 -0.116279 -4.146498
v -0.303171 -0.117463 -4.588730
v -0.668610 -0.094031 -5.224962
v -0.621539 -0.043318 -6.240557
v -0.157497 -0.045513 -6.413643
v -0.643854 -0.018379 -6.974952
v -0.611403 -0.044953 -7.219148
v -4.067266 -0.047800 -4.021824
v -3.263121 -0.046223 -4.242264
v -4.484230 -0.028638 -3.711221
v -5.275129 0.031554 -4.150346
v -6.101856 0.041114 -3.854129
v -6.712787 0.014727 -3.432314
v -3.594164 -0.039687 -4.665482
v -3.568369 -0.047163 -5.224050
v -4.336609 -0.035934 -4.656096
v -3.552671 -0.037811 -5.699557
v -5.255395 0.039095 -4.726023
v -5.962044 0.038902 -4.553117
v -6.194743 0.005595 -4.479048
v -3.587567 -0.003208 -6.365942
v -3.671405 -0.028602 -6.535436
v -4.557450 -0.032630 -5.854019
v -4.678829 -0.058226 -5.917468
v -5.361688 0.012003 -5.348533
v -5.301004 -0.032607 -5.530911
v -5.507744 -0.026554 -5.366498
v -2.797407 -0.115088 6.851676
v -5.195258 0.014149 3.630399
v -4.378861 -0.011108 4.056520
v -4.535344 -0.022026 4.637017
v -4.463704 -0.016688 5.112487
v -4.118820 -0.029538 5.503274
v -4.057215 -0.081886 6.225061
v -4.085880 -0.055265 5.997383
v -5.463289 -0.003204 4.077826
v -5.060259 -0.003791 4.605674
v -5.379104 -0.003302 4.603429
v -4.730324 -0.005180 5.744689
v -4.999333 -0.024105 5.755471
v -6.270647 -0.025885 3.743235
v -6.032577 -0.043837 4.284806
v -6.489327 -0.068826 3.689528
v -5.879217 -0.056867 4.717422
v -5.315278 0.014295 5.421418
v -5.463180 -0.031917 5.424708
v -2.251141 -0.031537 3.888082
v -1.375831 -0.037325 4.325469
v -3.027469 -0.039344 4.608685
v -2.642318 -0.037617 5.354389
v -1.990919 -0.029222 4.818846
v -1.447182 -0.076330 5.503127
v -0.409608 -0.092709 5.150575
v -0.449374 -0.094224 4.758926
v -0.796898 -0.071194 5.742522
v -3.182492 -0.025258 5.818017
v -2.077090 -0.069560 5.760273
v -1.561269 -0.083592 6.308225
v -0.957253 -0.077247 6.756606
v -0.144334 -0.038767 5.951888
v -3.168560 -0.065170 6.448587
v -2.325334 -0.094621 6.914426
v -2.386277 -0.074920 6.677561
v -1.546162 -0.100770 6.845428
v -1.456763 -0.130110 7.045669
v -0.567254 -0.074863 7.013547
v -0.651843 -0.112467 7.151705
v 0.194889 -0.015949 6.780687
v -2.831198 0.029617 2.976899
v -2.818515 0.007970 1.251762
v -3.282313 0.001560 1.005720
v -3.327090 0.063086 0.322670
v -2.742132 0.027797 0.723968
v -2.504252 0.022723 3.221551
v -2.230784 0.016422 2.144343
v -2.680231 0.016948 1.801095
v -2.051821 0.044749 1.272482
v -2.158761 0.059553 -0.149297
v -1.502126 -0.051596 3.500890
v -1.748571 0.003971 2.021863
v -0.846963 -0.032375 2.501723
v -1.392927 0.034935 0.846518
v -1.396604 0.056482 0.301756
v -0.430344 -0.033538 3.645085
v -0.204197 -0.040145 3.043855
v -0.601038 -0.042809 1.428541
v -0.207109 -0.069010 1.222455
v -0.691828 0.016683 0.289496
v -0.584120 -0.029450 0.959408
v -4.250909 -0.032361 2.916644
v -5.316609 -0.017653 2.374032
v -4.719246 -0.042847 2.860701
v -5.800438 0.025120 2.822014
v -6.661610 -0.028674 2.771796
v -6.288718 0.009168 3.036686
v -6.937586 -0.058715 2.476712
v -6.498450 -0.024812 2.391660
v -4.698066 -0.032868 2.166876
v -6.070586 -0.057211 1.935576
v -6.723123 -0.045660 1.728723
v -4.733324 -0.054616 1.440478
v -3.725433 -0.031368 1.438773
v -4.258630 -0.031782 0.998394
v -5.568506 -0.063386 1.502954
v -6.190483 -0.056388 0.772027
v -6.160395 -0.068762 1.496993
v -6.972123 -0.046589 1.186894
v -7.187662 -0.072810 0.782409
v -4.655605 0.008461 0.259084
v -5.782052 -0.034278 0.377203
v -6.790819 -0.009682 0.381307
v -7.034957 -0.030122 0.469178
v 3.151132 -0.045687 4.287082
v 2.862131 -0.074308 5.618664
v 3.135387 -0.046931 6.525967
v 2.853463 -0.032050 6.408400
v 2.446949 -0.064931 6.908879
v 1.715954 -0.021761 6.929134
v 1.674668 -0.043274 7.106197
v 1.868059 -0.072307 4.004279
v 1.083196 -0.047565 5.325912
v 1.524407 -0.053291 4.828235
v 0.962048 -0.023824 6.275726
v 1.846116 -0.014576 6.600989
v 1.252164 -0.021159 6.749700
v 0.667912 -0.050202 3.829226
v 0.050170 -0.053951 4.050469
v 0.662974 -0.031015 4.632461
v 0.316482 -0.064452 5.430786
v 0.477958 -0.043690 7.039545
v 0.647247 -0.077858 7.208029
v 4.312621 -0.019882 3.592379
v 4.816091 -0.014165 3.591906
v 6.363579 0.071747 3.804523
v 6.120701 0.073208 3.910389
v 4.185215 -0.080485 4.512287
v 4.823657 -0.072658 5.011958
v 5.413101 -0.003918 4.194920
v 6.103519 0.033231 4.319106
v 6.508486 0.031084 3.956096
v 3.580957 -0.088144 5.455723
v 4.146034 -0.101541 5.744351
v 4.227408 -0.102862 5.282109
v 6.188386 -0.006082 4.449412
v 5.481247 -0.060406 5.009445
v 3.412474 -0.073797 6.579449
v 4.149368 -0.085009 6.108229
v 4.353930 -0.091535 6.052732
v 5.161012 -0.093153 5.444788
v 5.648418 -0.081325 5.002714
v 4.154662 0.013050 1.983532
v 4.645283 -0.050577 0.910641
v 3.825928 -0.003745 1.704161
v 4.300196 -0.027793 0.231380
v 3.854869 -0.031449 0.316604
v 5.573386 0.063296 3.255090
v 5.566517 0.069489 1.873152
v 5.079240 0.068437 2.401644
v 5.389264 0.062946 1.616952
v 4.949134 0.038034 1.780873
v 5.050459 -0.012983 0.459998
v 5.521830 0.018855 0.434669
v 6.064401 0.105940 1.223417
v 6.148359 0.098416 0.948998
v 5.804045 0.085107 1.002089
v 6.184451 0.011769 0.149967
v 6.679068 0.083793 2.890631
v 6.862840 0.038917 3.046562
v 6.375043 0.101374 2.924859
v 6.877674 0.063759 2.108929
v 7.091123 0.020883 2.171406
v 6.625875 0.079611 2.026729
v 6.990061 0.094774 1.233606
v 7.278719 0.053734 1.130360
v 6.989357 0.088325 0.925700
v 7.003054 0.039843 0.312931
v 3.280388 0.012864 3.267874
v 2.733949 0.010747 2.718424
v 1.708977 -0.060029 2.927501
v 0.763231 -0.053943 3.110706
v 3.731568 0.012613 2.662308
v 2.070851 -0.046379 1.874474
v 2.055234 -0.041681 2.869736
v 2.816069 -0.020760 1.752594
v 1.330401 -0.054232 2.286588
v 1.701656 -0.058071 1.704468
v 0.435350 -0.070982 2.312017
v 3.268827 -0.014909 1.016231
v 2.311787 -0.065866 1.267774
v 1.176241 -0.079398 1.464962
v 0.093677 -0.056474 1.706225
v 3.532834 -0.034879 0.512340
v 2.600365 -0.127963 0.097624
v 2.720529 -0.110539 0.340096
v 1.322799 -0.144942 0.774215
v 1.086740 -0.149299 0.560651
v 0.144951 -0.113966 0.866839
v -7.494557 -0.167874 -1.743680
v -7.564777 -0.326030 -1.685624
v -7.484516 -0.316981 -2.047136
v -3.290246 -0.328251 6.843531
v -3.367793 -0.212841 6.738542
v -3.279395 -0.434392 6.864445
v 1.015932 -0.345807 7.508064
v -2.636320 -0.195777 7.012971
v 2.045777 -0.355797 7.413842
v 2.059102 -0.188225 7.285541
v 1.628359 -0.208768 7.399709
v 1.857625 -0.591744 7.535903
v -7.582027 -0.329403 -0.485214
v -7.514668 -0.191583 -0.445102
v -7.627703 -0.591817 -0.546362
v -7.593047 -0.591774 -0.217887
v -2.169307 -0.299434 7.197833
v -2.034131 -0.213037 7.178199
v -2.020988 -0.591924 7.268861
v 3.003558 -0.187879 6.901646
v 2.424490 -0.393644 7.311775
v 5.417907 -0.283296 5.290977
v -1.181068 -0.220417 7.194232
v 6.359239 -0.299560 4.521164
v 6.081769 -0.209219 4.770429
v -0.545885 -0.333732 7.317194
v -0.467554 -0.160143 7.241623
v -0.059162 -0.591709 7.450176
v 4.406408 -0.212753 6.183927
v 6.641583 -0.315027 4.162660
v 6.520296 -0.172344 4.338795
v 6.591343 -0.591799 4.159402
v 5.483809 -0.205472 -5.467436
v 4.727698 -0.231203 5.981520
v 6.903836 -0.294365 3.704819
v 6.885557 -0.168008 3.718652
v 7.114872 -0.166724 3.104742
v 6.868238 -0.591815 3.663034
v 4.779817 -0.295182 -5.993658
v 4.983833 -0.230198 5.735292
v 7.110164 -0.283792 3.188228
v 4.677817 -0.186690 -6.013476
v 3.790820 -0.451804 -6.859883
v 7.624461 -0.346999 -0.289341
v 7.557365 -0.171540 -0.728173
v 7.470017 -0.320156 2.070753
v 7.451741 -0.179781 1.955015
v 3.611861 -0.307442 -6.921035
v 3.596114 -0.182795 -6.830146
v 3.322733 -0.443397 -7.122904
v 3.065763 -0.300470 -7.176479
v 3.132597 -0.174052 -7.058732
v 7.576851 -0.287905 -1.043992
v 7.501419 -0.177312 -1.371970
v 7.493641 -0.310111 -1.494289
v 7.698253 -0.403307 0.865088
v 7.604003 -0.159812 0.935317
v 7.556852 -0.324482 1.647540
v 2.511470 -0.298979 -7.301882
v 2.575567 -0.177089 -7.224457
v 2.769217 -0.413819 -7.292501
v 7.292139 -0.592000 -1.977998
v 7.703966 -0.391867 0.379758
v 1.547946 -0.471199 -7.434964
v 7.198793 -0.312019 -2.557644
v 7.169868 -0.177612 -2.598142
v 7.071341 -0.591749 -2.912361
v 1.472771 -0.312995 -7.388851
v 1.424466 -0.199473 -7.318716
v 6.969426 -0.328034 -3.209333
v 6.907917 -0.179127 -3.353039
v 0.237962 -0.316912 -7.610291
v 0.531597 -0.188046 -7.504827
v 0.658475 -0.338049 -7.594827
v 6.482169 -0.347198 -4.242409
v 6.580001 -0.180257 -4.054097
v 6.181010 -0.216141 -4.713316
v 6.059324 -0.591900 -4.847851
v 5.783954 -0.207825 -5.201913
v -0.037443 -0.191789 -7.519673
v -0.226454 -0.591904 -7.620886
v -0.584925 -0.212891 -7.465082
v -1.225924 -0.422305 -7.446666
v -1.741062 -0.393186 -7.351391
v -1.852277 -0.189918 -7.282001
v -7.446522 -0.298714 0.255870
v -7.397078 -0.206358 0.438572
v -3.079216 -0.331924 -7.027107
v -3.216924 -0.199305 -6.943421
v -7.328380 -0.196068 1.667520
v -3.310719 -0.327725 -6.946414
v -7.432065 -0.366803 1.311774
v -3.693738 -0.193905 -6.734386
v -4.261946 -0.449296 -6.260767
v -3.590808 -0.336720 -6.802006
v -7.117448 -0.317477 2.851118
v -7.122511 -0.196612 2.637999
v -7.251376 -0.295219 2.315490
v -7.141380 -0.450918 2.904211
v -5.551509 -0.224618 -5.450004
v -4.428451 -0.226045 -6.233663
v -6.711113 -0.227393 3.665338
v -6.405716 -0.293299 -4.495882
v -6.248177 -0.198167 -4.697403
v -6.056867 -0.591770 -4.859746
v -5.071410 -0.322784 -5.811400
v -5.283855 -0.190048 -5.672595
v -6.743869 -0.438854 3.783109
v -6.462863 -0.171644 -4.407911
v -5.173877 -0.336922 5.832207
v -5.379142 -0.114679 5.611163
v -6.482556 -0.370145 4.176520
v -6.933697 -0.316967 -3.619232
v -6.889661 -0.173535 -3.644229
v -7.142334 -0.304929 -3.127741
v -7.095087 -0.168341 -3.126596
v -4.978396 -0.173187 5.936946
v -5.913981 -0.271156 4.871652
v -5.540000 -0.591820 5.430186
v -7.255690 -0.200809 -2.603616
v -4.198828 -0.308154 6.361863
v 0.674656 -0.348501 7.497105
v 0.839222 -0.210910 7.430648
v 1.740226 -0.127941 -1.837491
v 0.710560 -0.039223 -3.765150
v 6.446157 0.002026 -1.491275
v 3.334383 -0.027880 -5.369409
v 3.102569 -0.104745 -3.847600
v 1.741947 -0.015960 -5.109922
v 0.473819 -0.074966 -4.578691
v -3.652795 0.034167 -2.429351
v -1.584140 -0.041100 -3.724857
v -0.341689 -0.077130 -3.705464
v -0.716954 -0.011405 -1.435822
v -2.532921 -0.091617 -4.554987
v -1.716799 -0.090828 -4.785041
v -4.317655 -0.048258 -5.346651
v -4.558896 -0.039554 -5.282218
v -5.609441 0.052600 -4.717406
v -4.958220 -0.009884 -5.550063
v -3.629935 -0.014363 4.508018
v -5.908875 0.013496 3.486282
v -1.041699 -0.076944 4.784880
v -1.719566 -0.010133 2.739717
v -0.960564 0.034036 0.502791
v -5.981981 0.028508 2.987985
v 3.545311 -0.049863 4.462008
v 2.807687 -0.075397 5.222558
v 1.458982 -0.040211 5.665886
v 2.496978 -0.027616 6.250813
v 4.386858 -0.053374 0.895110
v 2.005316 -0.114733 0.841063
v -7.324298 -0.120253 0.482843
v -7.210161 -0.103446 1.810404
v -6.599214 -0.109526 3.643017
v -5.991247 -0.114346 4.673454
v 0.729490 -0.120669 7.316477
v 1.669177 -0.093611 7.265192
v 2.235095 -0.106098 7.108299
v 3.390545 -0.121612 6.690681
v 4.453439 -0.124864 6.073972
v 5.239393 -0.123540 5.430852
v 7.438812 -0.061051 -1.126074
v 7.110730 -0.076420 -2.548193
v 6.086107 -0.084476 -4.734789
v 5.556811 -0.096511 -5.360559
v -1.952030 -0.102083 -7.193488
v -3.427263 -0.093804 -6.771695
v -4.597620 -0.105313 -6.064736
v -5.375381 -0.093175 -5.567963
v -5.091920 -0.086718 5.807426
v -4.119926 -0.122268 6.295583
v -2.185456 -0.127988 7.057351
v -1.344487 -0.160794 7.128784
v 4.868381 -0.113415 -5.806073
v 3.600015 -0.090727 -6.702125
v 2.959846 -0.073735 -6.992232
v 2.276304 -0.089333 -7.140977
v 1.271563 -0.127137 -7.232394
v 0.418919 -0.104819 -7.374412
v -0.319213 -0.098075 -7.393878
v 0.044730 -0.065915 -3.802925
v -5.763293 -0.080465 -5.169724
v -6.349584 -0.066781 -4.475944
v -6.777098 -0.058498 -3.676583
v -6.986134 -0.057717 -3.124812
v -7.134690 -0.066510 -2.537740
v -7.370691 -0.056634 -1.728858
v -7.413963 -0.087790 -0.442656
v 5.666420 -0.114661 5.037245
v 6.328815 -0.071721 4.467696
v 6.691978 -0.049536 3.936732
v 7.006541 -0.044462 3.147210
v 7.443087 -0.038669 1.406270
v 7.491531 -0.043336 0.874172
v 7.467181 -0.069926 -0.330681
v 0.154599 -0.095044 -0.098524
v -7.440457 -0.591884 0.516013
v -7.438053 -0.591894 1.417315
v -7.196196 -0.591904 2.807120
v -6.766622 -0.591906 3.779774
v -6.322148 -0.591918 4.482718
v 1.087719 -0.591978 7.584974
v 2.329127 -0.591985 7.421703
v 3.014419 -0.591868 7.099039
v 3.708784 -0.592363 6.787476
v 4.822662 -0.591931 6.101608
v 5.380295 -0.591862 5.385577
v 7.559266 -0.591889 -1.031996
v 6.647698 -0.591960 -3.710734
v 6.382909 -0.591887 -4.319590
v 5.561420 -0.591888 -5.419272
v -0.998918 -0.592188 -7.566525
v -3.480899 -0.591954 -6.797649
v -4.239921 -0.591857 -6.232146
v -5.307737 -0.591928 -5.581963
v -5.254244 -0.591919 5.763457
v -3.227040 -0.591929 6.878175
v -1.000146 -0.592669 7.399966
v 4.964280 -0.591934 -5.887899
v 3.677354 -0.591899 -6.942431
v 3.178935 -0.591899 -7.179441
v 2.596888 -0.591839 -7.320977
v 0.577180 -0.591901 -7.656007
v -5.701339 -0.591934 -5.281157
v -6.479661 -0.591955 -4.197867
v -7.547163 -0.591919 -1.934175
v 6.228458 -0.591816 4.595140
v 7.272089 -0.591805 2.712786
v 7.694571 -0.591870 1.024158
v 7.727911 -0.591903 0.395602
v -4.854612 -0.357312 6.054786
v 3.914504 -0.049008 -1.503237
v 3.911067 -0.089779 -4.852349
v 2.752732 -0.028300 -6.019448
v 4.670187 -0.034881 -1.165370
v 5.299057 0.002306 -4.577230
v 1.792383 -0.039240 -6.579769
v -3.537970 0.059424 -1.668928
v -4.231436 0.043607 -0.820775
v -5.534546 0.011234 -3.331293
v -4.265033 0.075951 -1.506444
v -6.036880 0.096333 -0.937527
v -0.352969 -0.058297 -2.728967
v -1.712451 -0.019534 -1.661190
v -0.267729 -0.041750 -1.877158
v -3.291759 0.008573 3.649259
v -2.459459 -0.038022 4.335485
v -3.552822 0.017713 2.324190
v -4.316326 -0.027155 2.148556
v -4.446552 -0.012489 3.589297
v -5.226365 0.022221 5.344802
v -1.006932 -0.036298 1.729644
v -4.918911 -0.064898 1.052393
v -6.791372 -0.038670 0.905953
v 3.685970 0.003208 3.641042
v 4.177342 0.019357 2.592440
v 2.174027 -0.058267 3.329047
v 2.785459 -0.061777 4.630510
v 0.104478 -0.008013 6.502974
v 4.894699 -0.082833 5.462543
v 5.033681 0.063035 2.659610
v 0.529674 -0.071149 1.698572
v -7.022120 -0.104307 2.599637
v -5.568360 -0.102137 5.374425
v 6.716963 -0.072605 -3.681480
v -3.927094 -0.094042 -6.527642
v 4.686803 -0.009819 -0.143022
v 4.427756 -0.591764 6.400227
v -1.534131 -0.592001 -7.432303
v -2.976210 -0.591930 -7.033839
v -4.695649 -0.591903 6.154044
v 1.398506 -0.591938 -7.490358
v -6.997418 -0.591909 -3.426381
v -7.145198 -0.591943 -3.143958
vt 0.746911 0.640049
vt 0.782401 0.652568
vt 0.740410 0.688549
vt 0.682296 0.667363
vt 0.712288 0.641063
vt 0.687263 0.605965
vt 0.781217 0.598023
vt 0.702399 0.585092
vt 0.683325 0.553802
vt 0.752086 0.535996
vt 0.749072 0.579471
vt 0.656551 0.551073
vt 0.668199 0.519633
vt 0.634369 0.633230
vt 0.628425 0.686948
vt 0.627458 0.589885
vt 0.607313 0.534531
vt 0.605675 0.593274
vt 0.592059 0.658539
vt 0.547300 0.581330
vt 0.587748 0.542374
vt 0.586268 0.492376
vt 0.629677 0.502027
vt 0.596037 0.721398
vt 0.556737 0.734039
vt 0.562591 0.677178
vt 0.551690 0.628481
vt 0.507983 0.623734
vt 0.539050 0.507725
vt 0.515709 0.554269
vt 0.505528 0.510811
vt 0.814842 0.620492
vt 0.792249 0.556205
vt 0.855295 0.540470
vt 0.936812 0.549602
vt 0.921763 0.543130
vt 0.936448 0.503769
vt 0.902630 0.496293
vt 0.932892 0.485117
vt 0.949379 0.548632
vt 0.946309 0.468465
vt 0.959964 0.549253
vt 0.814199 0.470718
vt 0.844635 0.501450
vt 0.791887 0.504218
vt 0.879275 0.519414
vt 0.709882 0.476181
vt 0.720454 0.428369
vt 0.777138 0.443019
vt 0.810019 0.423067
vt 0.848538 0.440681
vt 0.861829 0.402591
vt 0.900081 0.409137
vt 0.881213 0.469477
vt 0.920381 0.413575
vt 0.931467 0.397627
vt 0.956753 0.459462
vt 0.817516 0.673768
vt 0.782489 0.703253
vt 0.778384 0.775758
vt 0.745693 0.739794
vt 0.804741 0.735549
vt 0.827018 0.763195
vt 0.793795 0.794173
vt 0.797661 0.841321
vt 0.835654 0.820387
vt 0.796506 0.854630
vt 0.766268 0.862103
vt 0.856795 0.619730
vt 0.840662 0.684570
vt 0.882899 0.696628
vt 0.858657 0.744082
vt 0.817630 0.720332
vt 0.850030 0.784373
vt 0.876844 0.771543
vt 0.879350 0.778228
vt 0.814816 0.851294
vt 0.890146 0.659273
vt 0.906607 0.601931
vt 0.904613 0.701928
vt 0.874302 0.757958
vt 0.917583 0.648862
vt 0.942559 0.626852
vt 0.932459 0.626224
vt 0.914742 0.697521
vt 0.933079 0.693573
vt 0.923470 0.696965
vt 0.900642 0.737275
vt 0.690443 0.718462
vt 0.629510 0.755315
vt 0.679058 0.785765
vt 0.639409 0.817533
vt 0.683441 0.839894
vt 0.594509 0.773916
vt 0.598435 0.802001
vt 0.595648 0.847625
vt 0.535865 0.830266
vt 0.548035 0.786561
vt 0.727454 0.784493
vt 0.753939 0.823600
vt 0.727342 0.797848
vt 0.634416 0.885906
vt 0.641888 0.856386
vt 0.584773 0.894431
vt 0.756832 0.880823
vt 0.706127 0.873317
vt 0.700471 0.895786
vt 0.654531 0.913367
vt 0.678805 0.917323
vt 0.619944 0.938219
vt 0.685662 0.923596
vt 0.634443 0.944951
vt 0.343904 0.673400
vt 0.314969 0.709652
vt 0.273051 0.700703
vt 0.240427 0.703904
vt 0.263961 0.664574
vt 0.215472 0.745075
vt 0.181544 0.716397
vt 0.212125 0.665374
vt 0.194083 0.662538
vt 0.270889 0.777569
vt 0.218375 0.793048
vt 0.186067 0.764584
vt 0.161126 0.810452
vt 0.104807 0.656081
vt 0.134210 0.649838
vt 0.149055 0.659465
vt 0.178584 0.607493
vt 0.138692 0.634288
vt 0.094521 0.632187
vt 0.081766 0.591952
vt 0.128753 0.759131
vt 0.138474 0.745700
vt 0.105160 0.719224
vt 0.118056 0.766321
vt 0.109250 0.774087
vt 0.082202 0.728841
vt 0.122167 0.697386
vt 0.094129 0.724134
vt 0.067392 0.651182
vt 0.079676 0.645769
vt 0.336663 0.765079
vt 0.352456 0.717362
vt 0.407009 0.741016
vt 0.479548 0.722792
vt 0.458143 0.754482
vt 0.442647 0.695523
vt 0.516214 0.675977
vt 0.530970 0.713730
vt 0.532083 0.734234
vt 0.398290 0.691924
vt 0.421762 0.683792
vt 0.418410 0.633500
vt 0.448729 0.644814
vt 0.309752 0.662648
vt 0.294224 0.618363
vt 0.374115 0.638509
vt 0.338985 0.629804
vt 0.381326 0.582484
vt 0.424838 0.589800
vt 0.440907 0.555889
vt 0.474201 0.604402
vt 0.469672 0.568258
vt 0.518657 0.595495
vt 0.254979 0.623195
vt 0.255790 0.600049
vt 0.298840 0.568195
vt 0.290791 0.540714
vt 0.344552 0.582158
vt 0.367862 0.550339
vt 0.406207 0.511450
vt 0.440439 0.511923
vt 0.401696 0.859907
vt 0.417350 0.847716
vt 0.427810 0.932150
vt 0.460435 0.848931
vt 0.371177 0.901419
vt 0.428666 0.947513
vt 0.495099 0.944317
vt 0.490535 0.958825
vt 0.487222 0.968181
vt 0.431060 0.957173
vt 0.466492 0.819817
vt 0.414426 0.818475
vt 0.530513 0.762863
vt 0.511889 0.794401
vt 0.458142 0.792079
vt 0.513792 0.849820
vt 0.563706 0.935423
vt 0.569296 0.949919
vt 0.530963 0.939359
vt 0.554094 0.890816
vt 0.590172 0.956966
vt 0.315411 0.810300
vt 0.366299 0.811014
vt 0.286051 0.798534
vt 0.309249 0.851790
vt 0.246623 0.836517
vt 0.193886 0.832877
vt 0.353138 0.841071
vt 0.363116 0.873661
vt 0.320650 0.892326
vt 0.305418 0.892063
vt 0.256608 0.869514
vt 0.235996 0.874262
vt 0.151644 0.819108
vt 0.213156 0.870264
vt 0.313679 0.926267
vt 0.285620 0.913554
vt 0.259525 0.906909
vt 0.378990 0.940632
vt 0.393776 0.962991
vt 0.376612 0.951751
vt 0.361796 0.956116
vt 0.307274 0.932092
vt 0.260954 0.921620
vt 0.265304 0.917142
vt 0.251300 0.910323
vt 0.232991 0.904172
vt 0.169917 0.335285
vt 0.240381 0.342192
vt 0.195010 0.400635
vt 0.173081 0.363880
vt 0.206769 0.296978
vt 0.148754 0.275104
vt 0.211394 0.212979
vt 0.162159 0.246891
vt 0.155670 0.217777
vt 0.201493 0.176000
vt 0.153346 0.204000
vt 0.215917 0.146117
vt 0.128181 0.372841
vt 0.121774 0.313486
vt 0.151877 0.303722
vt 0.123405 0.243639
vt 0.088021 0.392066
vt 0.091205 0.422730
vt 0.062481 0.382133
vt 0.105717 0.350317
vt 0.103164 0.318143
vt 0.101948 0.273146
vt 0.108082 0.247268
vt 0.101380 0.244935
vt 0.148170 0.200552
vt 0.072286 0.424440
vt 0.054081 0.445726
vt 0.049874 0.388526
vt 0.068728 0.346168
vt 0.064380 0.321879
vt 0.071708 0.317965
vt 0.095833 0.270060
vt 0.080194 0.274754
vt 0.087183 0.271465
vt 0.087462 0.259102
vt 0.240527 0.281196
vt 0.298188 0.311157
vt 0.293857 0.354912
vt 0.298203 0.251541
vt 0.343075 0.270612
vt 0.278521 0.288030
vt 0.410870 0.295779
vt 0.349065 0.321891
vt 0.433191 0.263522
vt 0.355351 0.237508
vt 0.391354 0.229063
vt 0.250760 0.230919
vt 0.276964 0.197165
vt 0.318858 0.201377
vt 0.387163 0.204849
vt 0.426407 0.175678
vt 0.242785 0.149136
vt 0.297603 0.155272
vt 0.288137 0.122698
vt 0.353685 0.175751
vt 0.325871 0.117265
vt 0.395399 0.114099
vt 0.389675 0.151846
vt 0.241981 0.134377
vt 0.294437 0.101112
vt 0.337307 0.087219
vt 0.289447 0.108810
vt 0.396136 0.095566
vt 0.346630 0.077372
vt 0.416435 0.061218
vt 0.278353 0.374662
vt 0.306370 0.477184
vt 0.249312 0.480301
vt 0.305982 0.442247
vt 0.319273 0.507466
vt 0.282587 0.499162
vt 0.348359 0.370892
vt 0.327346 0.414632
vt 0.351835 0.463851
vt 0.358097 0.414238
vt 0.404357 0.371060
vt 0.397881 0.478861
vt 0.407135 0.419833
vt 0.436210 0.431413
vt 0.429074 0.492596
vt 0.434163 0.328187
vt 0.473449 0.403710
vt 0.463128 0.437521
vt 0.489934 0.453255
vt 0.444587 0.459252
vt 0.448485 0.501079
vt 0.189142 0.495953
vt 0.180041 0.452087
vt 0.203062 0.447281
vt 0.139974 0.449232
vt 0.138179 0.505115
vt 0.104438 0.429866
vt 0.101544 0.486839
vt 0.102729 0.514479
vt 0.065276 0.508833
vt 0.069242 0.465896
vt 0.058057 0.545244
vt 0.050565 0.573292
vt 0.034788 0.510659
vt 0.041964 0.467408
vt 0.224417 0.514931
vt 0.112046 0.558613
vt 0.073432 0.559797
vt 0.065323 0.590433
vt 0.142933 0.576050
vt 0.212438 0.565429
vt 0.193506 0.597465
vt 0.184075 0.522028
vt 0.617685 0.199654
vt 0.573070 0.273084
vt 0.590001 0.184285
vt 0.582070 0.147570
vt 0.626209 0.121021
vt 0.639158 0.182893
vt 0.579100 0.122287
vt 0.531985 0.049224
vt 0.594814 0.046166
vt 0.597779 0.053558
vt 0.543879 0.236956
vt 0.509778 0.192343
vt 0.565600 0.073569
vt 0.546164 0.089243
vt 0.500154 0.078508
vt 0.460671 0.218314
vt 0.474759 0.169294
vt 0.492038 0.142309
vt 0.451479 0.113326
vt 0.486604 0.060481
vt 0.461214 0.079348
vt 0.481037 0.050232
vt 0.477944 0.040127
vt 0.474088 0.266850
vt 0.408986 0.074754
vt 0.729237 0.217493
vt 0.705392 0.287119
vt 0.698819 0.224679
vt 0.779334 0.227437
vt 0.757367 0.172880
vt 0.802689 0.181902
vt 0.818272 0.184992
vt 0.824789 0.174110
vt 0.858620 0.221485
vt 0.849886 0.233431
vt 0.677798 0.170106
vt 0.668992 0.121789
vt 0.710233 0.129820
vt 0.797261 0.157792
vt 0.801009 0.149024
vt 0.656848 0.094167
vt 0.708229 0.100402
vt 0.751821 0.120917
vt 0.762648 0.119207
vt 0.581244 0.061601
vt 0.651386 0.071316
vt 0.665082 0.071545
vt 0.725396 0.097568
vt 0.730885 0.096679
vt 0.763760 0.116073
vt 0.713099 0.324043
vt 0.697589 0.345749
vt 0.677490 0.289553
vt 0.758491 0.380911
vt 0.743341 0.385744
vt 0.698209 0.421599
vt 0.789544 0.401504
vt 0.748332 0.426616
vt 0.755799 0.270668
vt 0.762254 0.285390
vt 0.799037 0.309581
vt 0.763675 0.324323
vt 0.792355 0.327431
vt 0.826226 0.357611
vt 0.818045 0.395775
vt 0.838293 0.340579
vt 0.847391 0.355493
vt 0.907950 0.379972
vt 0.885032 0.269419
vt 0.873180 0.276345
vt 0.866643 0.212786
vt 0.917360 0.308765
vt 0.911009 0.327581
vt 0.859547 0.284905
vt 0.892477 0.325982
vt 0.897158 0.344007
vt 0.616524 0.301347
vt 0.641116 0.259783
vt 0.573116 0.302734
vt 0.551278 0.304662
vt 0.538535 0.349313
vt 0.491367 0.308697
vt 0.484342 0.361959
vt 0.589558 0.362511
vt 0.569983 0.378489
vt 0.499726 0.397293
vt 0.636255 0.358244
vt 0.542198 0.401143
vt 0.613428 0.395238
vt 0.561819 0.440356
vt 0.652161 0.444590
vt 0.674716 0.395424
vt 0.648704 0.460958
vt 0.601638 0.425698
vt 0.551049 0.456830
vt 0.072554 0.753776
vt 0.051608 0.755303
vt 0.061538 0.733140
vt 0.183403 0.160191
vt 0.183632 0.149545
vt 0.221335 0.132879
vt 0.472798 0.029825
vt 0.423519 0.041716
vt 0.431501 0.029050
vt 0.410790 0.035770
vt 0.038686 0.660676
vt 0.047617 0.655809
vt 0.072640 0.732878
vt 0.247143 0.123345
vt 0.242522 0.110254
vt 0.252484 0.111703
vt 0.524298 0.015117
vt 0.501414 0.030059
vt 0.498303 0.016621
vt 0.517007 0.000103
vt 0.018835 0.646861
vt 0.034493 0.611770
vt 0.567364 0.037539
vt 0.515393 0.039896
vt 0.567231 0.007838
vt 0.617030 0.015277
vt 0.749032 0.094654
vt 0.753848 0.073685
vt 0.820379 0.112408
vt 0.794799 0.125611
vt 0.337585 0.067554
vt 0.302374 0.092193
vt 0.303138 0.061385
vt 0.817011 0.133625
vt 0.824022 0.148038
vt 0.670765 0.030527
vt 0.667509 0.059354
vt 0.838915 0.150123
vt 0.937951 0.758180
vt 0.906146 0.797741
vt 0.913739 0.748976
vt 0.882216 0.795804
vt 0.711487 0.077808
vt 0.690945 0.066860
vt 0.671199 0.068190
vt 0.701549 0.043361
vt 0.860648 0.174844
vt 0.877114 0.163179
vt 0.880505 0.203452
vt 0.837456 0.866850
vt 0.876870 0.211671
vt 0.913426 0.275361
vt 0.914093 0.220587
vt 0.918379 0.265525
vt 0.823028 0.868463
vt 0.971919 0.451613
vt 0.961113 0.433626
vt 0.966833 0.404152
vt 0.961438 0.361383
vt 0.991404 0.448580
vt 0.962005 0.317994
vt 0.929820 0.288979
vt 0.812716 0.889570
vt 0.837937 0.879682
vt 0.794527 0.891519
vt 0.810687 0.903059
vt 0.781957 0.907925
vt 0.975897 0.479379
vt 0.967365 0.472540
vt 0.937545 0.332351
vt 0.928825 0.338723
vt 0.954073 0.331672
vt 0.764722 0.898882
vt 0.745241 0.897846
vt 0.781848 0.877418
vt 0.764353 0.908416
vt 0.794131 0.880334
vt 0.777581 0.922717
vt 0.967597 0.551543
vt 0.976180 0.548997
vt 0.995300 0.511801
vt 0.697509 0.927813
vt 0.712281 0.943626
vt 0.992531 0.574747
vt 0.654536 0.960987
vt 0.703506 0.935137
vt 0.628492 0.967541
vt 0.609456 0.961979
vt 0.643715 0.952653
vt 0.654946 0.979313
vt 0.603272 0.990743
vt 0.943169 0.692529
vt 0.953955 0.645705
vt 0.952065 0.621583
vt 0.962391 0.600786
vt 0.983250 0.631153
vt 0.974432 0.672090
vt 0.961005 0.660945
vt 0.973020 0.592631
vt 0.926637 0.728158
vt 0.912322 0.738839
vt 0.962458 0.712256
vt 0.575554 0.968804
vt 0.553036 0.997929
vt 0.494480 0.974818
vt 0.536157 0.987068
vt 0.408033 0.973177
vt 0.502518 0.987446
vt 0.012679 0.597343
vt 0.039107 0.598493
vt 0.421836 0.999316
vt 0.416859 0.982250
vt 0.027442 0.520865
vt 0.045803 0.594137
vt 0.018500 0.544176
vt 0.003410 0.539199
vt 0.377404 0.967519
vt 0.401832 0.980568
vt 0.385061 0.995510
vt 0.382557 0.977774
vt 0.019151 0.481412
vt 0.325619 0.953089
vt 0.327347 0.978864
vt 0.330078 0.969977
vt 0.018539 0.447463
vt 0.025909 0.460454
vt 0.009996 0.444068
vt 0.246296 0.923179
vt 0.266079 0.930132
vt 0.222340 0.936787
vt 0.194734 0.888156
vt 0.277945 0.942928
vt 0.251990 0.952265
vt 0.033222 0.392572
vt 0.179090 0.883306
vt 0.179125 0.873720
vt 0.020813 0.384100
vt 0.033495 0.357177
vt 0.133613 0.841709
vt 0.141955 0.837427
vt 0.153318 0.885755
vt 0.111579 0.844394
vt 0.087795 0.237449
vt 0.103504 0.234172
vt 0.054675 0.257744
vt 0.070896 0.232334
vt 0.026689 0.332225
vt 0.058799 0.306088
vt 0.097273 0.827904
vt 0.112144 0.815356
vt 0.100671 0.201022
vt 0.137965 0.192115
vt 0.904919 0.553391
vt 0.946838 0.411264
vt 0.906673 0.739005
vt 0.129239 0.806730
vt 0.056406 0.653307
vt 0.407463 0.778711
vt 0.198369 0.869885
vt 0.188788 0.873069
vt 0.151541 0.834956
vt 0.314263 0.940479
vt 0.043408 0.392838
vt 0.034580 0.461346
vt 0.345143 0.094462
vt 0.245807 0.424794
vt 0.168123 0.411189
vt 0.660079 0.231022
vt 0.419442 0.052632
vt 0.831458 0.235859
vt 0.836418 0.171847
vt 0.809536 0.145614
vt 0.099924 0.782121
vt 0.180437 0.143718
vt 0.177087 0.134010
vt 0.431201 0.011219
vt 0.242127 0.089259
vt 0.022828 0.668642
vt 0.853859 0.178841
vt 0.483048 0.000100
vt 0.849903 0.135633
vt 0.361178 0.038583
vt 0.872506 0.795583
vt 0.817916 0.860393
vt 0.973958 0.357221
vt 0.706293 0.955473
vt 0.516944 0.999900
vt 0.000100 0.450138
vt 0.192545 0.916761
vt 0.010981 0.382613
vt 0.102587 0.219475
vt 0.120215 0.810638
vn -0.0211 0.9996 0.0171
vn -0.0216 0.9998 -0.0014
vn 0.0060 0.9999 0.0077
vn 0.0234 0.9996 0.0155
vn 0.0064 0.9995 0.0292
vn -0.0026 0.9997 0.0233
vn -0.0396 0.9991 0.0109
vn -0.0221 0.9996 -0.0148
vn -0.0339 0.9991 -0.0256
vn -0.0288 0.9990 -0.0327
vn -0.0377 0.9985 -0.0402
vn -0.0453 0.9988 0.0146
vn -0.0587 0.9983 0.0026
vn 0.0176 0.9991 0.0385
vn 0.0150 0.9993 0.0333
vn 0.0013 0.9996 0.0282
vn -0.0208 0.9997 0.0082
vn 0.0417 0.9983 0.0414
vn 0.0322 0.9992 0.0216
vn 0.0584 0.9968 0.0543
vn 0.0411 0.9988 0.0245
vn -0.0037 0.9997 -0.0222
vn -0.0518 0.9986 -0.0084
vn -0.0084 0.9999 0.0029
vn -0.0378 0.9989 -0.0267
vn 0.0087 0.9999 0.0003
vn 0.0360 0.9993 0.0089
vn 0.0255 0.9996 -0.0089
vn 0.0529 0.9986 -0.0027
vn 0.0875 0.9959 0.0214
vn 0.1033 0.9946 0.0051
vn -0.0339 0.9994 0.0017
vn -0.0404 0.9988 -0.0262
vn -0.0525 0.9986 -0.0040
vn 0.1107 0.9934 -0.0280
vn 0.0107 0.9999 0.0105
vn 0.1091 0.9938 -0.0225
vn -0.0275 0.9993 0.0248
vn 0.0396 0.9992 -0.0014
vn 0.3011 0.9501 -0.0815
vn 0.2260 0.9734 -0.0361
vn 0.6246 0.7588 -0.1845
vn -0.0108 0.9999 0.0013
vn -0.0256 0.9996 0.0042
vn -0.0314 0.9993 -0.0189
vn -0.0206 0.9995 0.0233
vn -0.0496 0.9987 -0.0106
vn -0.0165 0.9998 0.0009
vn -0.0211 0.9997 -0.0069
vn -0.0161 0.9995 -0.0287
vn -0.0162 0.9998 -0.0140
vn -0.0219 0.9975 -0.0676
vn -0.0223 0.9995 -0.0214
vn -0.0229 0.9997 0.0088
vn 0.0587 0.9982 -0.0085
vn 0.2177 0.9757 -0.0245
vn 0.5785 0.8133 -0.0622
vn -0.0258 0.9995 -0.0150
vn -0.0179 0.9997 -0.0134
vn 0.0110 0.9986 0.0523
vn 0.0233 0.9988 0.0431
vn 0.0176 0.9985 0.0523
vn 0.0071 0.9989 0.0464
vn 0.0140 0.9997 0.0217
vn 0.0529 0.9973 -0.0497
vn 0.1870 0.9507 -0.2472
vn 0.1212 0.9676 -0.2216
vn 0.0045 0.9987 -0.0492
vn -0.0598 0.9982 0.0017
vn -0.0695 0.9975 0.0086
vn -0.0670 0.9977 0.0074
vn -0.0472 0.9989 0.0050
vn -0.0287 0.9994 0.0174
vn 0.0327 0.9994 -0.0117
vn 0.1599 0.9473 -0.2775
vn 0.3757 0.7373 -0.5615
vn 0.2885 0.8557 -0.4295
vn -0.0612 0.9979 0.0190
vn -0.0635 0.9980 0.0025
vn -0.0016 0.9991 -0.0423
vn -0.0014 0.9974 -0.0717
vn -0.0042 0.9999 -0.0120
vn 0.3159 0.9340 -0.1664
vn 0.1035 0.9931 -0.0545
vn 0.1093 0.9884 -0.1054
vn 0.5980 0.6728 -0.4355
vn 0.3085 0.9177 -0.2501
vn 0.0841 0.9815 -0.1719
vn 0.0240 0.9994 0.0244
vn -0.0168 0.9998 0.0036
vn -0.0050 0.9999 0.0106
vn -0.0212 0.9997 0.0085
vn -0.0164 0.9998 -0.0104
vn -0.0419 0.9991 -0.0092
vn -0.0226 0.9991 0.0340
vn -0.0085 0.9997 0.0215
vn -0.0209 0.9986 0.0475
vn -0.0331 0.9993 0.0141
vn 0.0208 0.9992 0.0324
vn -0.0136 0.9998 0.0170
vn 0.0270 0.9995 0.0180
vn 0.0052 0.9995 -0.0292
vn -0.0027 0.9999 -0.0132
vn 0.0194 0.9998 -0.0042
vn 0.0140 0.9776 -0.2100
vn -0.0252 0.9994 -0.0215
vn -0.0280 0.9966 -0.0772
vn 0.0110 0.9988 -0.0465
vn 0.0156 0.9829 -0.1832
vn 0.0281 0.9920 -0.1231
vn 0.0551 0.9173 -0.3944
vn 0.0438 0.9274 -0.3715
vn 0.0237 0.9992 -0.0316
vn 0.0289 0.9977 -0.0610
vn 0.0002 0.9992 -0.0390
vn -0.0393 0.9991 -0.0163
vn -0.0024 0.9998 0.0206
vn -0.0065 0.9994 -0.0338
vn 0.0057 0.9996 -0.0258
vn -0.0132 0.9998 0.0087
vn 0.0350 0.9993 -0.0085
vn 0.0140 0.9993 -0.0348
vn 0.0360 0.9992 0.0161
vn 0.0195 0.9998 -0.0037
vn -0.0564 0.9983 -0.0143
vn -0.0710 0.9974 0.0126
vn -0.0143 0.9996 0.0231
vn 0.0213 0.9997 -0.0131
vn 0.0332 0.9971 0.0681
vn 0.0219 0.9970 0.0743
vn -0.0660 0.9950 0.0753
vn -0.0226 0.9968 0.0766
vn -0.0836 0.9962 -0.0211
vn -0.0062 0.9999 -0.0141
vn -0.0941 0.9952 -0.0244
vn -0.2317 0.9707 -0.0637
vn -0.5137 0.8463 -0.1412
vn -0.5245 0.8475 -0.0812
vn -0.0230 0.9990 -0.0373
vn -0.2340 0.9715 -0.0376
vn -0.3148 0.9486 0.0312
vn -0.1588 0.9866 0.0365
vn 0.0109 0.9990 -0.0441
vn 0.0203 0.9979 -0.0611
vn 0.0017 0.9992 -0.0402
vn 0.0222 0.9992 -0.0327
vn 0.0043 0.9985 -0.0534
vn 0.0195 0.9997 -0.0109
vn 0.0208 0.9998 -0.0073
vn 0.0231 0.9996 -0.0166
vn -0.0022 0.9981 -0.0613
vn 0.0194 0.9986 -0.0486
vn 0.0448 0.9990 -0.0016
vn 0.0457 0.9985 -0.0280
vn 0.0249 0.9995 -0.0160
vn 0.0171 0.9998 0.0079
vn -0.0030 1.0000 0.0037
vn 0.0406 0.9989 -0.0238
vn 0.0046 0.9999 -0.0082
vn 0.0287 0.9991 -0.0309
vn 0.0316 0.9982 -0.0509
vn 0.0411 0.9986 -0.0330
vn 0.0323 0.9990 -0.0308
vn 0.0841 0.9964 -0.0069
vn 0.0653 0.9977 0.0175
vn -0.0032 0.9996 0.0288
vn -0.0197 0.9998 0.0071
vn -0.0145 0.9998 -0.0062
vn -0.0149 0.9987 0.0487
vn -0.0003 0.9999 -0.0119
vn 0.0013 0.9999 0.0116
vn 0.0262 0.9996 0.0060
vn 0.0736 0.9972 -0.0100
vn 0.0414 0.9991 0.0089
vn 0.0082 0.9999 0.0086
vn 0.0138 0.9997 0.0208
vn -0.0022 0.9994 0.0337
vn 0.0260 0.9990 0.0369
vn -0.0045 0.9981 -0.0607
vn -0.0101 0.9991 -0.0419
vn -0.0523 0.9663 -0.2521
vn -0.1364 0.7854 -0.6038
vn -0.0513 0.9787 -0.1986
vn 0.0135 0.9999 0.0030
vn 0.0189 0.9992 -0.0343
vn -0.0096 0.9984 -0.0547
vn 0.0179 0.9998 -0.0028
vn 0.0157 0.9988 -0.0460
vn 0.0056 0.9991 0.0403
vn 0.0125 0.9991 -0.0396
vn -0.0140 0.9728 -0.2312
vn -0.0049 0.9995 -0.0322
vn -0.0083 0.9993 0.0351
vn -0.0360 0.8593 -0.5102
vn 0.0133 0.9998 -0.0094
vn 0.0253 0.9995 -0.0204
vn 0.0543 0.9984 0.0109
vn 0.0411 0.9991 -0.0064
vn 0.0479 0.9985 0.0238
vn 0.0094 0.9999 0.0119
vn 0.0159 0.9998 -0.0027
vn 0.0305 0.9995 0.0013
vn 0.0151 0.9998 0.0047
vn 0.0609 0.9980 -0.0118
vn 0.0576 0.9982 -0.0145
vn -0.0192 0.9990 -0.0405
vn -0.2715 0.9570 -0.1023
vn -0.1285 0.9864 -0.1018
vn -0.0482 0.9958 -0.0775
vn -0.0010 0.9940 -0.1092
vn -0.0954 0.9814 -0.1663
vn -0.0055 0.9993 -0.0378
vn -0.2116 0.7941 -0.5698
vn -0.1358 0.9471 -0.2907
vn -0.4113 0.6716 -0.6163
vn -0.1883 0.9312 -0.3121
vn -0.5279 0.5198 -0.6716
vn -0.2347 0.8841 -0.4042
vn -0.3969 0.8207 -0.4108
vn -0.6080 0.5668 -0.5558
vn 0.0079 0.9999 0.0073
vn -0.0173 0.9997 0.0146
vn -0.0323 0.9995 -0.0034
vn 0.0403 0.9989 -0.0216
vn 0.0101 0.9998 0.0168
vn 0.0227 0.9997 -0.0032
vn 0.0056 0.9995 0.0325
vn 0.0065 0.9991 0.0419
vn 0.0086 0.9965 0.0825
vn -0.0374 0.9921 0.1196
vn -0.0927 0.9611 0.2602
vn -0.1602 0.8934 0.4197
vn 0.0193 0.9998 -0.0011
vn 0.0171 0.9998 -0.0060
vn 0.0155 0.9998 0.0045
vn -0.0049 0.9925 0.1222
vn -0.0398 0.9981 0.0472
vn -0.0303 0.9995 -0.0062
vn -0.1436 0.9857 0.0873
vn -0.0356 0.9990 0.0284
vn -0.0273 0.9995 -0.0144
vn -0.0145 0.9997 0.0172
vn -0.1899 0.9099 0.3688
vn -0.4300 0.6394 0.6373
vn -0.2448 0.7970 0.5520
vn -0.0927 0.9955 0.0193
vn -0.1399 0.9896 0.0328
vn -0.3174 0.9337 0.1659
vn -0.1231 0.9903 0.0646
vn -0.6736 0.5948 0.4386
vn -0.4089 0.8858 0.2194
vn -0.1745 0.9678 0.1810
vn -0.7655 0.3783 0.5204
vn -0.4689 0.8030 0.3677
vn -0.6307 0.4346 0.6428
vn 0.0238 0.9996 0.0147
vn 0.0452 0.9979 0.0454
vn 0.0356 0.9988 0.0325
vn 0.0132 0.9998 0.0147
vn 0.0164 0.9997 0.0150
vn 0.0024 1.0000 0.0043
vn 0.0139 0.9998 0.0087
vn 0.0139 0.9998 0.0143
vn -0.0057 0.9998 0.0169
vn 0.0424 0.9983 0.0388
vn -0.0044 0.9995 0.0312
vn 0.0190 0.9997 0.0119
vn 0.0272 0.9993 0.0253
vn 0.0191 0.9997 0.0168
vn -0.0146 0.9996 -0.0219
vn -0.0229 0.9996 -0.0179
vn 0.0097 0.9981 0.0612
vn 0.0007 0.9998 0.0161
vn -0.0070 0.9964 0.0839
vn -0.0199 0.9995 -0.0234
vn -0.0391 0.9988 0.0284
vn -0.0243 0.9997 -0.0024
vn -0.0223 0.9985 -0.0501
vn -0.0315 0.9798 0.1973
vn -0.0414 0.8234 0.5659
vn -0.0609 0.9128 0.4037
vn -0.0189 0.9655 0.2594
vn -0.0226 0.9967 0.0780
vn -0.0808 0.6654 0.7421
vn -0.0291 0.9502 0.3103
vn -0.0042 0.9999 0.0070
vn -0.0400 0.9991 0.0130
vn -0.0324 0.9995 0.0029
vn -0.0236 0.9997 -0.0049
vn 0.0020 0.9987 0.0497
vn -0.0281 0.9977 0.0606
vn 0.0416 0.9987 0.0276
vn 0.0194 0.9997 0.0144
vn -0.0022 0.9997 0.0239
vn 0.0413 0.9988 0.0251
vn 0.0207 0.9998 0.0025
vn 0.0467 0.9978 0.0464
vn 0.0467 0.9987 0.0187
vn 0.0501 0.9986 0.0184
vn 0.0672 0.9969 0.0403
vn 0.0197 0.9998 -0.0057
vn 0.0303 0.9992 -0.0261
vn 0.0742 0.9968 -0.0300
vn 0.0685 0.9974 -0.0223
vn 0.1184 0.9926 0.0285
vn 0.1202 0.9925 0.0218
vn -0.0210 0.9996 -0.0178
vn 0.0007 0.9999 -0.0104
vn -0.0305 0.9995 -0.0126
vn 0.0189 0.9990 -0.0403
vn -0.0096 0.9998 -0.0196
vn 0.0113 0.9988 -0.0470
vn 0.0009 0.9987 -0.0515
vn 0.0137 0.9999 -0.0050
vn 0.0286 0.9994 -0.0169
vn -0.0348 0.9986 -0.0390
vn -0.0809 0.9966 0.0138
vn -0.2810 0.9591 0.0331
vn -0.4780 0.8744 0.0829
vn -0.2561 0.9645 0.0641
vn -0.0371 0.9979 0.0530
vn 0.0185 0.9988 0.0440
vn 0.0088 0.9995 0.0282
vn -0.1260 0.9904 0.0574
vn 0.0053 0.9964 0.0844
vn -0.0339 0.9980 0.0528
vn -0.0075 0.9990 0.0438
vn -0.0258 0.9992 0.0297
vn -0.0255 0.9990 0.0370
vn -0.0392 0.9987 0.0331
vn -0.0081 0.9998 0.0172
vn 0.0110 0.9998 0.0121
vn 0.0210 0.9996 0.0164
vn 0.0145 0.9987 0.0479
vn 0.0229 0.9993 -0.0296
vn 0.0972 0.9645 0.2456
vn 0.3033 0.7008 0.6456
vn 0.1533 0.9484 0.2776
vn 0.0014 1.0000 -0.0033
vn 0.0166 0.9998 -0.0096
vn 0.0295 0.9995 -0.0034
vn 0.0203 0.9992 -0.0351
vn 0.0091 0.9999 0.0059
vn -0.0111 0.9999 0.0037
vn -0.0075 0.9999 0.0051
vn 0.0029 0.9997 -0.0249
vn 0.0011 0.9996 -0.0273
vn 0.0117 0.9958 0.0910
vn -0.0036 0.9993 0.0379
vn 0.0338 0.9751 0.2191
vn 0.0743 0.8651 0.4960
vn 0.0106 0.9999 -0.0101
vn -0.0183 0.9866 0.1620
vn -0.0482 0.9972 0.0577
vn -0.0315 0.9993 0.0186
vn 0.0089 0.9987 0.0487
vn -0.0550 0.9976 0.0420
vn -0.0670 0.9959 0.0598
vn -0.0123 0.9977 0.0671
vn 0.1081 0.9911 0.0773
vn 0.2872 0.9372 0.1978
vn 0.3171 0.9435 0.0955
vn 0.1271 0.9915 0.0283
vn 0.0042 0.9988 0.0473
vn -0.0050 0.9998 0.0152
vn -0.0334 0.9987 0.0377
vn 0.0620 0.9868 0.1497
vn 0.2593 0.9114 0.3196
vn -0.0038 0.9996 -0.0273
vn 0.0060 0.9992 0.0378
vn 0.0491 0.9906 0.1279
vn 0.2683 0.8907 0.3670
vn 0.0544 0.9945 0.0887
vn 0.0296 0.9995 0.0086
vn 0.1522 0.9615 0.2289
vn 0.1922 0.9467 0.2583
vn 0.5738 0.5543 0.6029
vn 0.5127 0.5658 0.6457
vn -0.0328 0.9988 -0.0367
vn -0.0053 0.9995 -0.0308
vn -0.0046 1.0000 -0.0005
vn -0.0510 0.9984 -0.0212
vn 0.0031 0.9999 -0.0117
vn -0.0305 0.9990 -0.0331
vn -0.0473 0.9987 0.0199
vn -0.0094 0.9991 0.0417
vn -0.0415 0.9987 0.0280
vn -0.0369 0.9993 -0.0096
vn -0.0307 0.9995 0.0032
vn -0.0597 0.9970 -0.0479
vn -0.0566 0.9984 0.0043
vn -0.0730 0.9959 -0.0533
vn -0.0568 0.9968 -0.0555
vn -0.0245 0.9997 -0.0010
vn -0.0147 0.9976 -0.0679
vn 0.0511 0.9971 -0.0554
vn 0.2776 0.9582 0.0687
vn 0.1201 0.9923 0.0290
vn 0.6110 0.7640 0.2072
vn 0.6147 0.7811 0.1099
vn 0.2862 0.9581 0.0137
vn 0.0232 0.9996 0.0122
vn 0.0887 0.9959 0.0161
vn 0.0645 0.9965 -0.0529
vn -0.0410 0.9991 0.0058
vn -0.0217 0.9993 0.0296
vn -0.0595 0.9980 0.0227
vn -0.0203 0.9997 0.0128
vn -0.0020 1.0000 -0.0036
vn 0.0083 0.9999 -0.0039
vn 0.0125 0.9999 -0.0083
vn -0.0403 0.9991 -0.0048
vn -0.0191 0.9994 -0.0274
vn 0.0180 0.9996 0.0227
vn -0.0317 0.9991 -0.0283
vn -0.0108 0.9970 -0.0768
vn -0.0471 0.9969 -0.0617
vn -0.0113 0.9983 -0.0573
vn -0.0671 0.9961 -0.0563
vn -0.0316 0.9986 -0.0427
vn -0.0527 0.9984 -0.0175
vn -0.0452 0.9965 -0.0700
vn 0.0161 0.9997 -0.0190
vn -0.9250 0.2761 -0.2610
vn -0.9756 0.0765 -0.2059
vn -0.9735 0.2097 -0.0905
vn -0.3264 0.6228 0.7110
vn -0.3701 0.3019 0.8785
vn -0.2510 0.5743 0.7792
vn 0.0853 0.5893 0.8033
vn -0.0252 0.6415 0.7667
vn 0.0143 0.4057 0.9138
vn -0.1013 0.3592 0.9277
vn -0.9523 0.2983 0.0643
vn -0.8283 0.5562 0.0679
vn -0.8177 0.5625 -0.1223
vn -0.0821 0.8705 0.4852
vn -0.2178 0.3070 0.9264
vn -0.0774 0.5982 0.7976
vn 0.3380 0.4547 0.8240
vn 0.2107 0.7006 0.6818
vn 0.2083 0.4544 0.8661
vn 0.3079 0.3227 0.8950
vn -0.9699 0.1859 0.1573
vn -0.9642 0.2063 0.1666
vn 0.3253 0.5794 0.7473
vn 0.1729 0.8709 0.4600
vn 0.3993 0.2383 0.8853
vn 0.4136 0.4415 0.7962
vn 0.6795 0.1285 0.7223
vn 0.7110 0.1575 0.6853
vn 0.6871 -0.1110 0.7180
vn 0.6228 0.2002 0.7563
vn -0.0871 0.4071 0.9092
vn -0.0657 0.5423 0.8376
vn -0.0675 0.4196 0.9052
vn 0.7187 -0.0259 0.6948
vn 0.7605 0.2777 0.5870
vn 0.4653 0.4486 0.7630
vn 0.4385 0.5384 0.7196
vn 0.8402 -0.0528 0.5396
vn 0.6713 0.0041 -0.7411
vn 0.6109 0.0810 -0.7875
vn 0.5874 0.2691 -0.7632
vn 0.5854 0.2586 -0.7684
vn 0.6887 0.3156 0.6527
vn 0.5348 0.5356 0.6535
vn 0.3693 0.7616 0.5325
vn 0.6310 0.3602 0.6870
vn 0.9025 -0.0196 0.4303
vn 0.8911 -0.1576 0.4254
vn 0.9345 0.0327 0.3543
vn 0.5876 0.1737 -0.7903
vn 0.8790 0.3859 0.2799
vn 0.8379 0.5092 0.1963
vn 0.9495 -0.0172 0.3132
vn 0.9602 0.1141 0.2549
vn 0.4709 0.4076 -0.7823
vn 0.9831 0.1469 -0.1088
vn 0.8650 0.5004 -0.0377
vn 0.9895 0.0973 -0.1065
vn 0.9665 0.2540 -0.0362
vn 0.9870 -0.0736 -0.1430
vn 0.9871 0.0818 0.1373
vn 0.9636 0.2023 0.1750
vn 0.4044 0.1645 -0.8997
vn 0.5213 0.0504 -0.8519
vn 0.2916 0.4100 -0.8642
vn 0.3222 0.0211 -0.9464
vn 0.2114 0.1577 -0.9646
vn 0.9682 -0.0251 -0.2489
vn 0.8816 0.4355 -0.1820
vn 0.8454 0.5307 0.0592
vn 0.5609 0.8278 -0.0094
vn 0.9753 0.2093 0.0706
vn 0.1312 0.6650 -0.7352
vn 0.0246 0.8815 -0.4716
vn 0.1476 0.8795 -0.4524
vn 0.1155 0.3547 -0.9278
vn 0.2922 0.6773 -0.6751
vn 0.1458 0.0264 -0.9890
vn 0.8923 0.3517 -0.2831
vn 0.9619 -0.0020 -0.2735
vn 0.9428 -0.2130 -0.2562
vn 0.0894 0.6984 -0.7101
vn 0.1392 0.2798 -0.9499
vn 0.9366 -0.0777 -0.3418
vn 0.1420 0.3931 -0.9084
vn 0.1370 0.4581 -0.8782
vn -0.0186 0.3736 -0.9274
vn -0.0455 0.6500 -0.7586
vn 0.0848 0.7300 -0.6781
vn 0.0872 0.1805 -0.9797
vn -0.1016 0.2552 -0.9615
vn 0.8013 0.2023 -0.5630
vn 0.8443 0.2807 -0.4564
vn 0.6878 0.6558 -0.3110
vn 0.8909 0.2786 -0.3587
vn 0.8716 -0.2691 -0.4096
vn 0.8600 -0.2010 -0.4689
vn 0.8751 -0.0839 -0.4765
vn 0.9182 -0.0527 -0.3926
vn 0.7193 0.2361 -0.6533
vn 0.5189 0.6250 -0.5831
vn 0.7933 -0.0620 -0.6057
vn -0.1009 0.5070 -0.8560
vn -0.1515 0.3779 -0.9133
vn -0.1658 0.4558 -0.8744
vn -0.1713 0.3269 -0.9294
vn -0.2788 0.4784 -0.8327
vn -0.2128 0.1860 -0.9592
vn -0.9894 0.1220 0.0780
vn -0.9005 0.4255 0.0891
vn -0.2940 -0.1015 -0.9503
vn -0.2746 0.0855 -0.9577
vn -0.8350 0.5393 0.1088
vn -0.6055 0.7933 0.0637
vn -0.9709 0.2315 0.0610
vn -0.9911 0.0755 0.1099
vn -0.4647 0.3387 -0.8181
vn -0.4028 0.0177 -0.9151
vn -0.4893 -0.2357 -0.8397
vn -0.5030 -0.0522 -0.8627
vn -0.9309 0.3143 0.1861
vn -0.5540 0.0320 -0.8319
vn -0.5441 -0.2467 -0.8019
vn -0.5435 -0.2754 -0.7929
vn -0.8630 0.3965 0.3131
vn -0.7792 0.5805 0.2363
vn -0.9138 0.2122 0.3464
vn -0.6766 0.0902 -0.7307
vn -0.5787 0.1283 -0.8054
vn -0.7011 -0.0633 -0.7102
vn -0.7499 0.1834 -0.6355
vn -0.5428 -0.1374 -0.8285
vn -0.5859 -0.1601 -0.7944
vn -0.7521 0.5414 0.3758
vn -0.8137 -0.1270 -0.5671
vn -0.8146 0.2770 -0.5095
vn -0.8564 0.2359 0.4592
vn -0.7947 0.3168 0.5178
vn -0.8865 0.0438 -0.4605
vn -0.8171 0.4259 -0.3885
vn -0.7881 -0.3259 -0.5221
vn -0.8658 -0.1465 -0.4784
vn -0.6245 0.0788 0.7770
vn -0.4655 0.3959 0.7915
vn -0.7865 0.0430 0.6161
vn -0.6824 -0.0029 0.7309
vn -0.7786 0.2254 0.5855
vn -0.7962 0.2116 0.5668
vn -0.9304 0.0059 -0.3664
vn -0.9270 0.1680 -0.3352
vn -0.4760 0.0566 0.8776
vn -0.4394 0.2208 0.8707
vn -0.0403 0.9991 0.0056
vn 0.5352 0.8445 -0.0167
vn 0.2523 0.9023 -0.3495
vn -0.5431 0.8236 -0.1631
vn -0.5855 0.8093 0.0464
vn 0.0110 0.9993 -0.0361
vn -0.3085 0.9246 -0.2235
vn -0.5899 0.6909 -0.4179
vn -0.5745 0.7671 -0.2852
vn -0.4249 0.6411 -0.6391
vn -0.5190 0.8149 0.2577
vn -0.5247 0.8334 0.1733
vn -0.0457 0.9872 0.1528
vn -0.0384 0.9990 -0.0231
vn 0.0191 0.9997 -0.0173
vn 0.0154 0.9989 0.0443
vn -0.0325 0.8517 0.5230
vn 0.0113 0.9999 0.0086
vn 0.6171 0.7069 0.3457
vn 0.5385 0.6507 0.5352
vn -0.7911 0.5660 -0.2318
vn -0.3810 0.0369 0.9238
vn -0.3618 -0.0391 0.9314
vn 0.0079 0.2823 0.9593
vn -0.1852 0.1447 0.9720
vn -0.9882 0.1496 0.0332
vn 0.8422 0.3706 0.3915
vn 0.1284 0.3544 0.9262
vn 0.8148 -0.1610 0.5568
vn -0.1223 0.2509 0.9602
vn 0.5011 0.5306 -0.6837
vn 0.4029 0.6478 -0.6465
vn 0.9960 0.0816 -0.0358
vn 0.1840 0.1985 -0.9626
vn -0.2002 0.2157 -0.9557
vn -0.9485 0.1598 0.2736
vn -0.7707 -0.1425 -0.6211
vn -0.8776 0.1113 0.4662
vn -0.5024 0.1130 0.8572
vn -0.8226 0.4981 -0.2741
s 1
f 1/1/1 24/2/2 468/3/3
f 468/3/3 6/4/4 7/5/5
f 1/1/1 7/5/5 8/6/6
f 31/7/7 8/6/6 2/8/8
f 10/9/9 573/10/10 3/11/11
f 10/9/9 9/12/12 4/13/13
f 14/14/14 7/5/5 12/15/15
f 8/6/6 7/5/5 14/14/14
f 10/9/9 2/8/8 464/16/16
f 10/9/9 464/16/16 9/12/12
f 9/12/12 16/17/17 4/13/13
f 15/18/18 14/14/14 13/19/19
f 15/18/18 20/20/20 22/21/21
f 17/22/22 11/23/23 16/17/17
f 465/24/24 522/25/25 18/26/26
f 19/27/27 13/19/19 18/26/26
f 19/27/27 586/28/28 20/20/20
f 23/29/29 22/21/21 21/30/30
f 21/30/30 537/31/31 23/29/29
f 24/2/2 1/1/1 32/32/32
f 32/32/32 1/1/1 31/7/7
f 31/7/7 3/11/11 30/33/33
f 32/32/32 30/33/33 33/34/34
f 27/35/35 28/36/36 35/37/37
f 28/36/36 466/38/38 38/39/39
f 35/37/37 29/40/40 27/35/35
f 39/41/41 504/42/42 29/40/40
f 41/43/43 36/44/44 576/45/45
f 36/44/44 33/34/34 30/33/33
f 36/44/44 466/38/38 34/46/46
f 38/39/39 39/41/41 35/37/37
f 5/47/47 298/48/48 608/49/49
f 576/45/45 608/49/49 41/43/43
f 40/50/50 42/51/51 608/49/49
f 608/49/49 42/51/51 41/43/43
f 42/51/51 40/50/50 309/52/52
f 309/52/52 44/53/53 42/51/51
f 42/51/51 44/53/53 37/54/54
f 38/39/39 44/53/53 43/55/55
f 45/56/56 503/57/57 39/41/41
f 24/2/2 51/58/58 46/59/59
f 467/60/60 71/61/61 574/62/62
f 467/60/60 53/63/63 48/64/64
f 49/65/65 54/66/66 50/67/67
f 50/67/67 80/68/68 49/65/65
f 32/32/32 25/69/69 51/58/58
f 52/70/70 51/58/58 25/69/69
f 52/70/70 577/71/71 57/72/72
f 53/63/63 574/62/62 47/73/73
f 60/74/74 58/75/75 49/65/65
f 54/66/66 515/76/76 516/77/77
f 56/78/78 25/69/69 55/79/79
f 56/78/78 52/70/70 25/69/69
f 577/71/71 52/70/70 56/78/78
f 577/71/71 66/80/80 57/72/72
f 57/72/72 66/80/80 59/81/81
f 58/75/75 60/74/74 59/81/81
f 515/76/76 54/66/66 58/75/75
f 64/82/82 55/79/79 28/36/36
f 27/35/35 63/83/83 61/84/84
f 62/85/85 64/82/82 61/84/84
f 61/84/84 63/83/83 62/85/85
f 63/83/83 505/86/86 65/87/87
f 62/85/85 65/87/87 67/88/88
f 67/88/88 66/80/80 62/85/85
f 6/4/4 468/3/3 69/89/89
f 12/15/15 69/89/89 70/90/90
f 70/90/90 465/24/24 12/15/15
f 70/90/90 469/91/91 73/92/92
f 73/92/92 469/91/91 78/93/93
f 73/92/92 470/94/94 70/90/90
f 74/95/95 73/92/92 75/96/96
f 75/96/96 146/97/97 74/95/95
f 74/95/95 145/98/98 470/94/94
f 467/60/60 48/64/64 72/99/99
f 575/100/100 76/101/101 72/99/99
f 469/91/91 76/101/101 78/93/93
f 77/102/102 79/103/103 78/93/93
f 77/102/102 148/104/104 79/103/103
f 80/68/68 50/67/67 81/105/105
f 80/68/68 578/106/106 575/100/100
f 578/106/106 80/68/68 82/107/107
f 77/102/102 578/106/106 83/108/108
f 83/108/108 84/109/109 85/110/110
f 84/109/109 519/111/111 520/112/112
f 83/108/108 148/104/104 77/102/102
f 116/113/113 471/114/114 87/115/115
f 90/116/116 582/117/117 87/115/115
f 87/115/115 91/118/118 90/116/116
f 97/119/119 92/120/120 91/118/118
f 582/117/117 90/116/116 92/120/120
f 92/120/120 97/119/119 93/121/121
f 89/122/122 581/123/123 96/124/124
f 96/124/124 581/123/123 103/125/125
f 110/126/126 100/127/127 583/128/128
f 94/129/129 583/128/128 99/130/130
f 109/131/131 254/132/132 99/130/130
f 101/133/133 98/134/134 103/125/125
f 98/134/134 101/133/133 105/135/135
f 102/136/136 527/137/137 528/138/138
f 105/135/135 106/139/139 98/134/134
f 105/135/135 104/140/140 108/141/141
f 108/141/141 107/142/142 105/135/135
f 105/135/135 110/126/126 106/139/139
f 107/142/142 254/132/132 109/131/131
f 86/143/143 111/144/144 112/145/145
f 113/146/146 472/147/147 114/148/148
f 113/146/146 584/149/149 115/150/150
f 522/25/25 473/151/151 115/150/150
f 117/152/152 111/144/144 116/113/113
f 116/113/113 118/153/153 117/152/152
f 118/153/153 585/154/154 114/148/148
f 119/155/155 586/28/28 584/149/149
f 584/149/149 586/28/28 19/27/27
f 579/156/156 582/117/117 120/157/157
f 121/158/158 116/113/113 122/159/159
f 121/158/158 127/160/160 585/154/154
f 123/161/161 128/162/162 474/163/163
f 474/163/163 119/155/155 123/161/161
f 474/163/163 129/164/164 124/165/165
f 21/30/30 124/165/165 129/164/164
f 120/157/157 580/166/166 88/167/167
f 125/168/168 215/169/169 126/170/170
f 126/170/170 120/157/157 125/168/168
f 126/170/170 221/171/171 127/160/160
f 127/160/160 226/172/172 128/162/162
f 128/162/162 130/173/173 129/164/164
f 129/164/164 130/173/173 537/31/31
f 21/30/30 129/164/164 537/31/31
f 132/174/174 131/175/175 134/176/176
f 134/176/176 131/175/175 138/177/177
f 132/174/174 134/176/176 160/178/178
f 133/179/179 134/176/176 139/180/180
f 140/181/181 507/182/182 135/183/183
f 131/175/175 476/184/184 138/177/177
f 131/175/175 475/185/185 476/184/184
f 472/147/147 473/151/151 144/186/186
f 144/186/186 141/187/187 137/188/188
f 141/187/187 476/184/184 137/188/188
f 476/184/184 141/187/187 142/189/189
f 149/190/190 150/191/191 143/192/192
f 143/192/192 140/181/181 139/180/180
f 150/191/191 507/182/182 140/181/181
f 75/96/96 148/104/104 147/193/193
f 149/190/190 148/104/104 85/110/110
f 85/110/110 150/191/191 149/190/190
f 85/110/110 521/194/194 150/191/191
f 151/195/195 86/143/143 152/196/196
f 153/197/197 89/122/122 151/195/195
f 151/195/195 159/198/198 153/197/197
f 581/123/123 153/197/197 154/199/199
f 581/123/123 89/122/122 153/197/197
f 581/123/123 154/199/199 155/200/200
f 157/201/201 152/196/196 158/202/202
f 157/201/201 158/202/202 159/198/198
f 158/202/202 477/203/203 159/198/198
f 159/198/198 151/195/195 157/201/201
f 159/198/198 478/204/204 161/205/205
f 161/205/205 154/199/199 159/198/198
f 154/199/199 479/206/206 155/200/200
f 156/207/207 103/125/125 162/208/208
f 477/203/203 158/202/202 160/178/178
f 160/178/178 166/209/209 477/203/203
f 478/204/204 159/198/198 477/203/203
f 478/204/204 480/210/210 161/205/205
f 479/206/206 168/211/211 162/208/208
f 161/205/205 168/211/211 479/206/206
f 164/212/212 134/176/176 133/179/179
f 135/183/183 508/213/213 165/214/214
f 164/212/212 165/214/214 166/209/209
f 165/214/214 607/215/215 167/216/216
f 166/209/209 167/216/216 480/210/210
f 168/211/211 161/205/205 480/210/210
f 167/216/216 510/217/217 169/218/218
f 170/219/219 510/217/217 523/220/220
f 169/218/218 510/217/217 170/219/219
f 173/221/221 587/222/222 233/223/223
f 233/223/223 591/224/224 173/221/221
f 481/225/225 175/226/226 199/227/227
f 176/228/228 178/229/229 204/230/230
f 204/230/230 177/231/231 171/232/232
f 173/221/221 591/224/224 172/233/233
f 173/221/221 180/234/234 174/235/235
f 173/221/221 172/233/233 180/234/234
f 174/235/235 180/234/234 175/226/226
f 178/229/229 182/236/236 177/231/231
f 482/237/237 172/233/233 486/238/238
f 482/237/237 184/239/239 179/240/240
f 179/240/240 172/233/233 482/237/237
f 181/241/241 180/234/234 179/240/240
f 592/242/242 180/234/234 181/241/241
f 182/236/236 175/226/226 592/242/242
f 183/243/243 511/244/244 512/245/245
f 184/239/239 238/246/246 237/247/247
f 184/239/239 186/248/248 185/249/249
f 186/248/248 496/250/250 187/251/251
f 592/242/242 181/241/241 185/249/249
f 185/249/249 187/251/251 188/252/252
f 187/251/251 605/253/253 189/254/254
f 189/254/254 605/253/253 451/255/255
f 192/256/256 190/257/257 481/225/225
f 481/225/225 217/258/258 587/222/222
f 194/259/259 191/260/260 588/261/261
f 191/260/260 227/262/262 222/263/263
f 227/262/262 191/260/260 270/264/264
f 191/260/260 483/265/265 197/266/266
f 192/256/256 199/227/227 193/267/267
f 192/256/256 481/225/225 199/227/227
f 588/261/261 193/267/267 194/259/259
f 200/268/268 195/269/269 194/259/259
f 191/260/260 195/269/269 483/265/265
f 191/260/260 194/259/259 195/269/269
f 195/269/269 197/266/266 483/265/265
f 197/266/266 195/269/269 196/270/270
f 196/270/270 272/271/271 197/266/266
f 200/268/268 206/272/272 201/273/273
f 201/273/273 206/272/272 207/274/274
f 201/273/273 195/269/269 200/268/268
f 201/273/273 198/275/275 195/269/269
f 198/275/275 202/276/276 600/277/277
f 600/277/277 203/278/278 198/275/275
f 204/230/230 171/232/232 205/279/279
f 205/279/279 206/272/272 204/230/230
f 514/280/280 210/281/281 208/282/282
f 600/277/277 202/276/276 211/283/283
f 367/284/284 274/285/285 210/281/281
f 587/222/222 217/258/258 212/286/286
f 213/287/287 245/288/288 219/289/289
f 213/287/287 216/290/290 214/291/291
f 214/291/291 245/288/288 213/287/287
f 214/291/291 216/290/290 215/169/169
f 216/290/290 221/171/171 215/169/169
f 190/257/257 484/292/292 217/258/258
f 219/289/289 218/293/293 220/294/294
f 221/171/171 216/290/290 213/287/287
f 223/295/295 484/292/292 224/296/296
f 225/297/297 223/295/295 593/298/298
f 593/298/298 229/299/299 225/297/297
f 226/172/172 220/294/294 225/297/297
f 225/297/297 485/300/300 226/172/172
f 485/300/300 130/173/173 226/172/172
f 227/262/262 228/301/301 224/296/296
f 224/296/296 222/263/263 227/262/262
f 229/299/299 593/298/298 334/302/302
f 230/303/303 340/304/304 232/305/305
f 232/305/305 229/299/299 230/303/303
f 232/305/305 485/300/300 229/299/299
f 231/306/306 485/300/300 232/305/305
f 232/305/305 537/31/31 231/306/306
f 244/307/307 241/308/308 590/309/309
f 234/310/310 241/308/308 244/307/307
f 247/311/311 234/310/310 244/307/307
f 236/312/312 234/310/310 242/313/313
f 242/313/313 247/311/311 249/314/314
f 249/314/314 243/315/315 242/313/313
f 242/313/313 240/316/316 236/312/312
f 240/316/316 242/313/313 243/315/315
f 237/247/247 243/315/315 250/317/317
f 251/318/318 494/319/319 239/320/320
f 245/288/288 214/291/291 246/321/321
f 245/288/288 244/307/307 590/309/309
f 248/322/322 595/323/323 249/314/314
f 250/317/317 595/323/323 255/324/324
f 255/324/324 251/318/318 250/317/317
f 253/325/325 252/326/326 95/327/327
f 253/325/325 248/322/322 594/328/328
f 253/325/325 94/129/129 99/130/130
f 99/130/130 254/132/132 253/325/325
f 253/325/325 254/132/132 248/322/322
f 254/132/132 595/323/323 248/322/322
f 254/132/132 107/142/142 255/324/324
f 256/329/329 598/330/330 599/331/331
f 488/332/332 284/333/333 487/334/334
f 284/333/333 488/332/332 257/335/335
f 260/336/336 500/337/337 289/338/338
f 599/331/331 598/330/330 263/339/339
f 265/340/340 257/335/335 488/332/332
f 259/341/341 490/342/342 267/343/343
f 265/340/340 271/344/344 264/345/345
f 264/345/345 489/346/346 265/340/340
f 267/343/343 489/346/346 266/347/347
f 261/348/348 268/349/349 262/350/350
f 274/285/285 498/351/351 262/350/350
f 270/264/264 271/344/344 269/352/352
f 264/345/345 271/344/344 272/271/271
f 271/344/344 270/264/264 272/271/271
f 272/271/271 489/346/346 264/345/345
f 266/347/347 272/271/271 600/277/277
f 268/349/349 600/277/277 211/283/283
f 273/353/353 274/285/285 262/350/350
f 276/354/354 597/355/355 275/356/356
f 299/357/357 281/358/358 278/359/359
f 276/354/354 281/358/358 299/357/357
f 277/360/360 283/361/361 311/362/362
f 311/362/362 310/363/363 277/360/360
f 279/364/364 286/365/365 280/366/366
f 282/367/367 287/368/368 283/361/361
f 283/361/361 277/360/360 282/367/367
f 284/333/333 285/369/369 286/365/365
f 286/365/365 601/370/370 280/366/366
f 288/371/371 281/358/358 280/366/366
f 288/371/371 293/372/372 287/368/368
f 287/368/368 282/367/367 288/371/371
f 258/373/373 289/338/338 290/374/374
f 290/374/374 259/341/341 258/373/373
f 290/374/374 285/369/369 259/341/341
f 289/338/338 500/337/337 291/375/375
f 601/370/370 285/369/369 290/374/374
f 292/376/376 601/370/370 291/375/375
f 293/372/372 502/377/377 530/378/378
f 292/376/376 502/377/377 293/372/372
f 293/372/372 288/371/371 292/376/376
f 294/379/379 296/380/380 324/381/381
f 295/382/382 491/383/383 294/379/379
f 294/379/379 491/383/383 296/380/380
f 335/384/384 491/383/383 298/48/48
f 304/385/385 608/49/49 297/386/386
f 297/386/386 608/49/49 298/48/48
f 597/355/355 276/354/354 299/357/357
f 299/357/357 602/387/387 597/355/355
f 597/355/355 602/387/387 301/388/388
f 300/389/389 303/390/390 301/388/388
f 301/388/388 303/390/390 294/379/379
f 302/391/391 308/392/392 303/390/390
f 305/393/393 40/50/50 304/385/385
f 602/387/387 299/357/357 301/388/388
f 302/391/391 300/389/389 306/394/394
f 306/394/394 308/392/392 302/391/391
f 305/393/393 307/395/395 309/52/52
f 319/396/396 44/53/53 309/52/52
f 309/52/52 40/50/50 305/393/393
f 314/397/397 313/398/398 310/363/363
f 533/399/399 314/397/397 311/362/362
f 314/397/397 533/399/399 534/400/400
f 534/400/400 317/401/401 314/397/397
f 306/394/394 315/402/402 316/403/403
f 317/401/401 318/404/404 316/403/403
f 309/52/52 318/404/404 319/396/396
f 45/56/56 43/55/55 319/396/396
f 324/381/381 321/405/405 320/406/406
f 321/405/405 598/330/330 320/406/406
f 326/407/407 598/330/330 321/405/405
f 322/408/408 598/330/330 326/407/407
f 322/408/408 263/339/339 598/330/330
f 322/408/408 328/409/409 263/339/339
f 228/301/301 269/352/352 263/339/339
f 323/410/410 330/411/411 228/301/301
f 270/264/264 269/352/352 228/301/301
f 322/408/408 326/407/407 325/412/412
f 328/409/409 322/408/408 329/413/413
f 330/411/411 323/410/410 328/409/409
f 328/409/409 603/414/414 330/411/411
f 330/411/411 334/302/302 228/301/301
f 329/413/413 325/412/412 327/415/415
f 333/416/416 329/413/413 332/417/417
f 334/302/302 603/414/414 333/416/416
f 338/418/418 340/304/304 334/302/302
f 298/48/48 5/47/47 335/384/384
f 5/47/47 337/419/419 335/384/384
f 337/419/419 331/420/420 335/384/384
f 336/421/421 17/22/22 338/418/418
f 338/418/418 492/422/422 336/421/421
f 338/418/418 17/22/22 339/423/423
f 340/304/304 338/418/418 339/423/423
f 339/423/423 23/29/29 340/304/304
f 23/29/29 537/31/31 340/304/304
f 343/424/424 567/425/425 342/426/426
f 345/427/427 171/232/232 512/245/245
f 344/428/428 348/429/429 345/427/427
f 351/430/430 463/431/431 347/432/432
f 351/430/430 498/351/351 463/431/431
f 347/432/432 463/431/431 462/433/433
f 353/434/434 354/435/435 341/436/436
f 341/436/436 342/426/426 353/434/434
f 348/429/429 513/437/437 171/232/232
f 357/438/438 358/439/439 348/429/429
f 348/429/429 344/428/428 357/438/438
f 361/440/440 350/441/441 349/442/442
f 350/441/441 498/351/351 351/430/430
f 349/442/442 544/443/443 361/440/440
f 353/434/434 356/444/444 426/445/445
f 358/439/439 514/280/280 513/437/437
f 360/446/446 499/447/447 350/441/441
f 361/440/440 545/448/448 546/449/449
f 362/450/450 548/451/451 568/452/452
f 362/450/450 568/452/452 365/453/453
f 366/454/454 367/284/284 363/455/455
f 363/455/455 367/284/284 514/280/280
f 358/439/439 559/456/456 363/455/455
f 559/456/456 366/454/454 363/455/455
f 360/446/446 546/449/449 500/337/337
f 364/457/457 371/458/458 365/453/453
f 364/457/457 365/453/453 568/452/452
f 366/454/454 463/431/431 367/284/284
f 546/449/449 609/459/459 369/460/460
f 371/458/458 364/457/457 370/461/461
f 552/462/462 560/463/463 373/464/464
f 560/463/463 379/465/465 373/464/464
f 380/466/466 502/377/377 374/467/467
f 374/467/467 501/468/468 369/460/460
f 609/459/459 547/469/469 374/467/467
f 374/467/467 547/469/469 380/466/466
f 375/470/470 378/471/471 381/472/472
f 560/463/463 383/473/473 379/465/465
f 533/399/399 377/474/474 387/475/475
f 569/476/476 386/477/477 381/472/472
f 383/473/473 388/478/478 379/465/465
f 393/479/479 385/480/480 384/481/481
f 384/481/481 385/480/480 403/482/482
f 384/481/481 549/483/483 393/479/479
f 386/477/477 570/484/484 398/485/485
f 388/478/478 383/473/473 390/486/486
f 383/473/473 561/487/487 390/486/486
f 390/486/486 391/488/488 388/478/478
f 390/486/486 562/489/489 401/490/490
f 395/491/491 394/492/492 393/479/479
f 394/492/492 503/57/57 385/480/480
f 397/493/493 535/494/494 534/400/400
f 397/493/493 398/485/485 396/495/495
f 534/400/400 387/475/475 397/493/493
f 400/496/496 518/497/497 517/498/498
f 400/496/496 391/488/488 399/499/499
f 517/498/498 392/500/500 400/496/496
f 401/490/490 562/489/489 563/501/501
f 406/502/502 504/42/42 394/492/492
f 405/503/503 395/491/491 402/504/504
f 395/491/491 549/483/483 402/504/504
f 403/482/482 385/480/480 397/493/493
f 397/493/493 396/495/495 403/482/482
f 409/505/505 519/111/111 518/497/497
f 518/497/497 400/496/496 409/505/505
f 399/499/499 401/490/490 404/506/506
f 401/490/490 563/501/501 404/506/506
f 402/504/504 407/507/507 405/503/503
f 404/506/506 414/508/508 408/509/509
f 412/510/510 420/511/511 413/512/512
f 413/512/512 414/508/508 412/510/510
f 414/508/508 564/513/513 412/510/510
f 412/510/510 564/513/513 421/514/514
f 417/515/515 505/86/86 416/516/516
f 416/516/516 606/517/517 411/518/518
f 550/519/519 551/520/520 415/521/521
f 410/522/522 550/519/519 415/521/521
f 419/523/523 505/86/86 417/515/515
f 373/464/464 506/524/524 419/523/523
f 419/523/523 418/525/525 552/462/462
f 422/526/526 420/511/511 412/510/510
f 422/526/526 521/194/194 420/511/511
f 421/514/514 553/527/527 422/526/526
f 425/528/528 507/182/182 422/526/526
f 422/526/526 553/527/527 423/529/529
f 429/530/530 507/182/182 425/528/528
f 424/531/531 425/528/528 423/529/529
f 356/444/444 538/532/532 426/445/445
f 426/445/445 538/532/532 427/533/533
f 424/531/531 611/534/534 428/535/535
f 430/536/536 493/537/537 427/533/533
f 432/538/538 538/532/532 539/539/539
f 433/540/540 508/213/213 429/530/530
f 431/541/541 429/530/530 428/535/535
f 431/541/541 611/534/534 554/542/542
f 428/535/535 611/534/534 431/541/541
f 554/542/542 435/543/543 431/541/541
f 438/544/544 430/536/536 432/538/538
f 441/545/545 433/540/540 435/543/543
f 441/545/545 607/215/215 433/540/540
f 435/543/543 554/542/542 555/546/546
f 435/543/543 434/547/547 441/545/545
f 436/548/548 437/549/549 438/544/544
f 438/544/544 439/550/550 436/548/548
f 440/551/551 510/217/217 447/552/552
f 565/553/553 444/554/554 440/551/551
f 441/545/545 434/547/547 446/555/555
f 434/547/547 555/546/546 556/556/556
f 442/557/557 437/549/549 436/548/548
f 436/548/548 439/550/550 442/557/557
f 443/558/558 449/559/559 444/554/554
f 446/555/555 556/556/556 447/552/552
f 442/557/557 448/560/560 452/561/561
f 453/562/562 454/563/563 449/559/559
f 449/559/559 443/558/558 453/562/562
f 443/558/558 566/564/564 614/565/565
f 450/566/566 457/567/567 451/255/255
f 451/255/255 605/253/253 459/568/568
f 459/568/568 557/569/569 451/255/255
f 452/561/561 542/570/570 458/571/571
f 453/562/562 614/565/565 615/572/572
f 615/572/572 455/573/573 453/562/562
f 567/425/425 343/424/424 455/573/573
f 512/245/245 457/567/567 345/427/427
f 612/574/574 344/428/428 461/575/575
f 463/431/431 366/454/454 462/433/433
f 7/5/5 1/1/1 468/3/3
f 8/6/6 31/7/7 1/1/1
f 2/8/8 3/11/11 31/7/7
f 3/11/11 2/8/8 10/9/9
f 573/10/10 10/9/9 4/13/13
f 573/10/10 4/13/13 5/47/47
f 5/47/47 4/13/13 336/421/421
f 12/15/15 7/5/5 6/4/4
f 8/6/6 14/14/14 464/16/16
f 464/16/16 2/8/8 8/6/6
f 9/12/12 464/16/16 16/17/17
f 11/23/23 336/421/421 4/13/13
f 4/13/13 16/17/17 11/23/23
f 12/15/15 6/4/4 69/89/89
f 12/15/15 465/24/24 13/19/19
f 13/19/19 14/14/14 12/15/15
f 15/18/18 13/19/19 19/27/27
f 15/18/18 464/16/16 14/14/14
f 23/29/29 17/22/22 16/17/17 22/21/21
f 606/517/517 63/83/83 29/40/40 504/42/42
f 18/26/26 13/19/19 465/24/24
f 20/20/20 15/18/18 19/27/27
f 20/20/20 586/28/28 124/165/165
f 20/20/20 124/165/165 21/30/30
f 21/30/30 22/21/21 20/20/20
f 32/32/32 33/34/34 25/69/69
f 55/79/79 25/69/69 33/34/34
f 33/34/34 26/576/576 55/79/79
f 28/36/36 55/79/79 26/576/576
f 27/35/35 29/40/40 63/83/83
f 39/41/41 38/39/39 43/55/55 45/56/56
f 30/33/33 3/11/11 573/10/10
f 32/32/32 31/7/7 30/33/33
f 34/46/46 466/38/38 28/36/36
f 33/34/34 34/46/46 26/576/576
f 34/46/46 28/36/36 26/576/576
f 35/37/37 28/36/36 38/39/39
f 39/41/41 503/57/57 504/42/42
f 35/37/37 39/41/41 29/40/40
f 576/45/45 573/10/10 5/47/47
f 573/10/10 576/45/45 30/33/33
f 36/44/44 30/33/33 576/45/45
f 34/46/46 33/34/34 36/44/44
f 466/38/38 36/44/44 37/54/54
f 37/54/54 36/44/44 41/43/43
f 37/54/54 44/53/53 466/38/38
f 38/39/39 466/38/38 44/53/53
f 5/47/47 608/49/49 576/45/45
f 37/54/54 41/43/43 42/51/51
f 28/36/36 27/35/35 61/84/84 64/82/82
f 45/56/56 536/577/577 503/57/57
f 46/59/59 468/3/3 24/2/2
f 24/2/2 32/32/32 51/58/58
f 46/59/59 51/58/58 47/73/73
f 47/73/73 574/62/62 46/59/59
f 467/60/60 574/62/62 53/63/63
f 49/65/65 575/100/100 48/64/64
f 49/65/65 80/68/68 575/100/100
f 48/64/64 60/74/74 49/65/65
f 50/67/67 54/66/66 516/77/77
f 516/77/77 517/498/498 50/67/67
f 52/70/70 47/73/73 51/58/58
f 47/73/73 52/70/70 57/72/72
f 57/72/72 53/63/63 47/73/73
f 53/63/63 57/72/72 60/74/74
f 60/74/74 48/64/64 53/63/63
f 49/65/65 58/75/75 54/66/66
f 59/81/81 60/74/74 57/72/72
f 56/78/78 64/82/82 66/80/80 577/71/71
f 64/82/82 56/78/78 55/79/79
f 62/85/85 63/83/83 65/87/87
f 63/83/83 606/517/517 505/86/86
f 62/85/85 66/80/80 64/82/82
f 506/524/524 68/578/578 65/87/87 505/86/86
f 67/88/88 58/75/75 59/81/81
f 67/88/88 59/81/81 66/80/80
f 67/88/88 65/87/87 68/578/578
f 58/75/75 68/578/578 506/524/524 515/76/76
f 68/578/578 58/75/75 67/88/88
f 70/90/90 470/94/94 522/25/25 465/24/24
f 468/3/3 46/59/59 574/62/62
f 574/62/62 71/61/61 468/3/3
f 69/89/89 468/3/3 71/61/61
f 70/90/90 69/89/89 469/91/91
f 84/109/109 81/105/105 518/497/497 519/111/111
f 470/94/94 145/98/98 144/186/186
f 470/94/94 144/186/186 522/25/25
f 72/99/99 71/61/61 467/60/60
f 469/91/91 69/89/89 72/99/99
f 69/89/89 71/61/61 72/99/99
f 469/91/91 72/99/99 76/101/101
f 74/95/95 470/94/94 73/92/92
f 74/95/95 146/97/97 145/98/98
f 72/99/99 48/64/64 575/100/100
f 78/93/93 76/101/101 575/100/100
f 575/100/100 578/106/106 78/93/93
f 77/102/102 78/93/93 578/106/106
f 78/93/93 79/103/103 73/92/92
f 75/96/96 73/92/92 79/103/103
f 79/103/103 148/104/104 75/96/96
f 81/105/105 50/67/67 517/498/498
f 517/498/498 518/497/497 81/105/105
f 82/107/107 80/68/68 81/105/105
f 81/105/105 84/109/109 82/107/107
f 579/156/156 116/113/113 87/115/115 582/117/117
f 83/108/108 578/106/106 82/107/107
f 83/108/108 82/107/107 84/109/109
f 85/110/110 84/109/109 520/112/112
f 520/112/112 521/194/194 85/110/110
f 83/108/108 85/110/110 148/104/104
f 86/143/143 87/115/115 471/114/114
f 89/122/122 87/115/115 86/143/143
f 88/167/167 580/166/166 95/327/327 252/326/326
f 582/117/117 92/120/120 580/166/166
f 582/117/117 580/166/166 120/157/157
f 110/126/126 109/131/131 99/130/130 100/127/127
f 89/122/122 91/118/118 87/115/115
f 91/118/118 92/120/120 90/116/116
f 95/327/327 92/120/120 93/121/121
f 95/327/327 580/166/166 92/120/120
f 95/327/327 93/121/121 94/129/129
f 94/129/129 93/121/121 583/128/128
f 91/118/118 89/122/122 96/124/124
f 103/125/125 581/123/123 155/200/200
f 103/125/125 98/134/134 96/124/124
f 97/119/119 91/118/118 96/124/124
f 97/119/119 96/124/124 98/134/134
f 98/134/134 106/139/139 97/119/119
f 583/128/128 93/121/121 97/119/119
f 583/128/128 97/119/119 106/139/139
f 106/139/139 110/126/126 583/128/128
f 99/130/130 583/128/128 100/127/127
f 156/207/207 102/136/136 101/133/133 103/125/125
f 526/579/579 527/137/137 102/136/136 156/207/207
f 102/136/136 104/140/140 105/135/135 101/133/133
f 18/26/26 522/25/25 115/150/150 584/149/149
f 104/140/140 102/136/136 528/138/138
f 108/141/141 104/140/140 528/138/138
f 528/138/138 529/580/580 108/141/141
f 105/135/135 107/142/142 110/126/126
f 109/131/131 110/126/126 107/142/142
f 86/143/143 471/114/114 111/144/144
f 112/145/145 136/581/581 86/143/143
f 112/145/145 111/144/144 117/152/152
f 112/145/145 117/152/152 114/148/148
f 112/145/145 472/147/147 136/581/581
f 114/148/148 472/147/147 112/145/145
f 113/146/146 114/148/148 584/149/149
f 113/146/146 473/151/151 472/147/147
f 115/150/150 473/151/151 113/146/146
f 127/160/160 121/158/158 122/159/159 126/170/170
f 116/113/113 111/144/144 471/114/114
f 118/153/153 116/113/113 121/158/158
f 118/153/153 121/158/158 585/154/154
f 118/153/153 114/148/148 117/152/152
f 114/148/148 585/154/154 119/155/155
f 119/155/155 584/149/149 114/148/148
f 19/27/27 18/26/26 584/149/149
f 122/159/159 116/113/113 579/156/156
f 579/156/156 120/157/157 122/159/159
f 122/159/159 120/157/157 126/170/170
f 135/183/183 133/179/179 139/180/180 140/181/181
f 123/161/161 119/155/155 585/154/154
f 585/154/154 127/160/160 123/161/161
f 474/163/163 586/28/28 119/155/155
f 474/163/163 128/162/162 129/164/164
f 124/165/165 586/28/28 474/163/163
f 125/168/168 120/157/157 88/167/167
f 126/170/170 215/169/169 221/171/171
f 127/160/160 221/171/171 226/172/172
f 128/162/162 123/161/161 127/160/160
f 128/162/162 226/172/172 130/173/173
f 130/173/173 231/306/306 537/31/31
f 152/196/196 86/143/143 136/581/581
f 136/581/581 475/185/185 152/196/196
f 132/174/174 158/202/202 152/196/196
f 132/174/174 152/196/196 475/185/185
f 132/174/174 475/185/185 131/175/175
f 138/177/177 139/180/180 134/176/176
f 135/183/183 507/182/182 508/213/213
f 475/185/185 136/581/581 472/147/147 137/188/188
f 146/97/97 147/193/193 143/192/192 142/189/189
f 137/188/188 476/184/184 475/185/185
f 137/188/188 472/147/147 144/186/186
f 476/184/184 142/189/189 138/177/177
f 139/180/180 138/177/177 142/189/189
f 156/207/207 163/582/582 524/583/583 525/584/584
f 142/189/189 143/192/192 139/180/180
f 149/190/190 143/192/192 147/193/193
f 150/191/191 521/194/194 507/182/182
f 143/192/192 150/191/191 140/181/181
f 473/151/151 522/25/25 144/186/186
f 144/186/186 145/98/98 141/187/187
f 146/97/97 142/189/189 145/98/98
f 142/189/189 141/187/187 145/98/98
f 147/193/193 146/97/97 75/96/96
f 149/190/190 147/193/193 148/104/104
f 151/195/195 89/122/122 86/143/143
f 152/196/196 157/201/201 151/195/195
f 153/197/197 159/198/198 154/199/199
f 525/584/584 526/579/579 156/207/207
f 479/206/206 154/199/199 161/205/205
f 162/208/208 103/125/125 155/200/200
f 155/200/200 479/206/206 162/208/208
f 163/582/582 156/207/207 162/208/208
f 170/219/219 163/582/582 162/208/208 168/211/211
f 160/178/178 158/202/202 132/174/174
f 160/178/178 164/212/212 166/209/209
f 523/220/220 524/583/583 163/582/582 170/219/219
f 165/214/214 164/212/212 133/179/179 135/183/183
f 464/16/16 15/18/18 22/21/21 16/17/17
f 164/212/212 160/178/178 134/176/176
f 169/218/218 168/211/211 480/210/210 167/216/216
f 165/214/214 508/213/213 607/215/215
f 166/209/209 165/214/214 167/216/216
f 166/209/209 478/204/204 477/203/203
f 166/209/209 480/210/210 478/204/204
f 167/216/216 607/215/215 509/585/585
f 167/216/216 509/585/585 510/217/217
f 174/235/235 481/225/225 587/222/222 173/221/221
f 168/211/211 169/218/218 170/219/219
f 186/248/248 184/239/239 237/247/247 239/320/320
f 481/225/225 174/235/235 175/226/226
f 199/227/227 175/226/226 176/228/228
f 204/230/230 178/229/229 177/231/231
f 199/227/227 176/228/228 204/230/230
f 171/232/232 177/231/231 512/245/245
f 176/228/228 175/226/226 182/236/236
f 176/228/228 182/236/236 178/229/229
f 177/231/231 183/243/243 512/245/245
f 177/231/231 182/236/236 183/243/243
f 486/238/238 238/246/246 482/237/237
f 179/240/240 180/234/234 172/233/233
f 179/240/240 184/239/239 185/249/249
f 592/242/242 175/226/226 180/234/234
f 182/236/236 592/242/242 188/252/252
f 182/236/236 188/252/252 183/243/243
f 184/239/239 482/237/237 238/246/246
f 495/586/586 186/248/248 239/320/320 604/587/587
f 183/243/243 189/254/254 451/255/255 511/244/244
f 186/248/248 495/586/586 496/250/250
f 185/249/249 186/248/248 187/251/251
f 185/249/249 181/241/241 179/240/240
f 188/252/252 592/242/242 185/249/249
f 187/251/251 496/250/250 605/253/253
f 188/252/252 187/251/251 189/254/254
f 189/254/254 183/243/243 188/252/252
f 272/271/271 196/270/270 198/275/275 203/278/278
f 192/256/256 588/261/261 190/257/257
f 481/225/225 190/257/257 217/258/258
f 222/263/263 588/261/261 191/260/260
f 270/264/264 191/260/260 197/266/266
f 192/256/256 193/267/267 588/261/261
f 193/267/267 200/268/268 194/259/259
f 196/270/270 195/269/269 198/275/275
f 205/279/279 208/282/282 207/274/274 206/272/272
f 197/266/266 272/271/271 270/264/264
f 199/227/227 206/272/272 193/267/267
f 206/272/272 200/268/268 193/267/267
f 201/273/273 202/276/276 198/275/275
f 206/272/272 199/227/227 204/230/230
f 171/232/232 513/437/437 205/279/279
f 209/588/588 207/274/274 208/282/282 210/281/281
f 208/282/282 205/279/279 513/437/437
f 513/437/437 514/280/280 208/282/282
f 202/276/276 201/273/273 207/274/274
f 273/353/353 209/588/588 210/281/281 274/285/285
f 514/280/280 367/284/284 210/281/281
f 207/274/274 209/588/588 202/276/276
f 211/283/283 202/276/276 209/588/588
f 212/286/286 217/258/258 218/293/293 219/289/289
f 209/588/588 273/353/353 211/283/283
f 212/286/286 589/589/589 587/222/222
f 589/589/589 212/286/286 219/289/289
f 219/289/289 590/309/309 589/589/589
f 219/289/289 245/288/288 590/309/309
f 125/168/168 88/167/167 215/169/169
f 589/589/589 590/309/309 233/223/223 587/222/222
f 218/293/293 484/292/292 223/295/295
f 217/258/258 484/292/292 218/293/293
f 220/294/294 213/287/287 219/289/289
f 218/293/293 223/295/295 220/294/294
f 213/287/287 220/294/294 221/171/171
f 222/263/263 484/292/292 190/257/257
f 222/263/263 190/257/257 588/261/261
f 224/296/296 484/292/292 222/263/263
f 223/295/295 224/296/296 593/298/298
f 225/297/297 220/294/294 223/295/295
f 225/297/297 229/299/299 485/300/300
f 226/172/172 221/171/171 220/294/294
f 224/296/296 228/301/301 334/302/302
f 334/302/302 593/298/298 224/296/296
f 229/299/299 334/302/302 230/303/303
f 232/305/305 340/304/304 537/31/31
f 231/306/306 130/173/173 485/300/300
f 235/590/590 233/223/223 590/309/309 241/308/308
f 233/223/223 235/590/590 591/224/224
f 172/233/233 591/224/224 235/590/590
f 235/590/590 234/310/310 172/233/233
f 236/312/312 172/233/233 234/310/310
f 486/238/238 172/233/233 236/312/312
f 236/312/312 240/316/316 486/238/238
f 237/247/247 238/246/246 240/316/316
f 238/246/246 486/238/238 240/316/316
f 239/320/320 237/247/247 250/317/317 251/318/318
f 234/310/310 235/590/590 241/308/308
f 242/313/313 234/310/310 247/311/311
f 237/247/247 240/316/316 243/315/315
f 108/141/141 251/318/318 255/324/324 107/142/142
f 239/320/320 494/319/319 604/587/587
f 244/307/307 245/288/288 246/321/321
f 246/321/321 594/328/328 244/307/307
f 247/311/311 244/307/307 594/328/328
f 594/328/328 248/322/322 247/311/311
f 249/314/314 247/311/311 248/322/322
f 249/314/314 595/323/323 243/315/315
f 250/317/317 243/315/315 595/323/323
f 251/318/318 493/537/537 494/319/319
f 246/321/321 214/291/291 215/169/169
f 252/326/326 215/169/169 88/167/167
f 215/169/169 252/326/326 246/321/321
f 246/321/321 252/326/326 594/328/328
f 253/325/325 594/328/328 252/326/326
f 95/327/327 94/129/129 253/325/325
f 255/324/324 595/323/323 254/132/132
f 493/537/537 251/318/318 108/141/141 529/580/580
f 320/406/406 256/329/329 487/334/334 596/591/591
f 599/331/331 488/332/332 487/334/334 256/329/329
f 256/329/329 320/406/406 598/330/330
f 267/343/343 261/348/348 258/373/373 259/341/341
f 257/335/335 490/342/342 259/341/341
f 258/373/373 260/336/336 289/338/338
f 260/336/336 499/447/447 500/337/337
f 263/339/339 265/340/340 599/331/331
f 488/332/332 599/331/331 265/340/340
f 265/340/340 489/346/346 257/335/335
f 490/342/342 257/335/335 489/346/346
f 489/346/346 267/343/343 490/342/342
f 260/336/336 258/373/373 261/348/348 262/350/350
f 499/447/447 260/336/336 262/350/350 498/351/351
f 265/340/340 263/339/339 269/352/352 271/344/344
f 211/283/283 273/353/353 262/350/350 268/349/349
f 266/347/347 600/277/277 268/349/349
f 266/347/347 268/349/349 267/343/343
f 261/348/348 267/343/343 268/349/349
f 274/285/285 497/592/592 498/351/351
f 266/347/347 489/346/346 272/271/271
f 600/277/277 272/271/271 203/278/278
f 279/364/364 275/356/356 596/591/591 487/334/334
f 274/285/285 367/284/284 497/592/592
f 312/593/593 278/359/359 277/360/360 310/363/363
f 279/364/364 276/354/354 275/356/356
f 532/594/594 533/399/399 311/362/362 283/361/361
f 531/595/595 532/594/594 283/361/361 287/368/368
f 487/334/334 284/333/333 279/364/364
f 280/366/366 276/354/354 279/364/364
f 280/366/366 281/358/358 276/354/354
f 282/367/367 277/360/360 278/359/359
f 278/359/359 288/371/371 282/367/367
f 281/358/358 288/371/371 278/359/359
f 530/378/378 531/595/595 287/368/368 293/372/372
f 284/333/333 257/335/335 285/369/369
f 257/335/335 259/341/341 285/369/369
f 286/365/365 279/364/364 284/333/333
f 286/365/365 285/369/369 601/370/370
f 280/366/366 601/370/370 288/371/371
f 502/377/377 292/376/376 291/375/375 501/468/468
f 290/374/374 289/338/338 291/375/375
f 291/375/375 500/337/337 501/468/468
f 291/375/375 601/370/370 290/374/374
f 278/359/359 312/593/593 301/388/388 299/357/357
f 292/376/376 288/371/371 601/370/370
f 324/381/381 596/591/591 275/356/356
f 275/356/356 597/355/355 324/381/381
f 294/379/379 324/381/381 597/355/355
f 295/382/382 294/379/379 303/390/390
f 296/380/380 491/383/383 335/384/384
f 297/386/386 298/48/48 491/383/383
f 297/386/386 491/383/383 295/382/382
f 295/382/382 304/385/385 297/386/386
f 294/379/379 597/355/355 301/388/388
f 300/389/389 302/391/391 303/390/390
f 308/392/392 305/393/393 295/382/382
f 303/390/390 308/392/392 295/382/382
f 304/385/385 295/382/382 305/393/393
f 304/385/385 40/50/50 608/49/49
f 307/395/395 306/394/394 316/403/403 318/404/404
f 312/593/593 315/402/402 301/388/388
f 300/389/389 301/388/388 315/402/402
f 306/394/394 300/389/389 315/402/402
f 315/402/402 312/593/593 310/363/363 313/398/398
f 306/394/394 307/395/395 308/392/392
f 305/393/393 308/392/392 307/395/395
f 311/362/362 314/397/397 310/363/363
f 316/403/403 313/398/398 314/397/397 317/401/401
f 317/401/401 45/56/56 319/396/396 318/404/404
f 313/398/398 316/403/403 315/402/402
f 534/400/400 535/494/494 317/401/401
f 309/52/52 307/395/395 318/404/404
f 460/596/596 341/436/436 528/138/138 527/137/137
f 45/56/56 317/401/401 535/494/494
f 535/494/494 536/577/577 45/56/56
f 319/396/396 43/55/55 44/53/53
f 596/591/591 324/381/381 320/406/406
f 263/339/339 328/409/409 323/410/410
f 323/410/410 228/301/301 263/339/339
f 228/301/301 227/262/262 270/264/264
f 324/381/381 296/380/380 327/415/415
f 327/415/415 321/405/405 324/381/381
f 325/412/412 326/407/407 321/405/405
f 321/405/405 327/415/415 325/412/412
f 322/408/408 325/412/412 329/413/413
f 330/411/411 603/414/414 334/302/302
f 331/420/420 327/415/415 296/380/380
f 296/380/380 335/384/384 331/420/420
f 332/417/417 331/420/420 492/422/422
f 327/415/415 331/420/420 332/417/417
f 332/417/417 329/413/413 327/415/415
f 333/416/416 332/417/417 338/418/418
f 332/417/417 492/422/422 338/418/418
f 333/416/416 603/414/414 329/413/413
f 603/414/414 328/409/409 329/413/413
f 333/416/416 338/418/418 334/302/302
f 334/302/302 340/304/304 230/303/303
f 5/47/47 336/421/421 337/419/419
f 337/419/419 492/422/422 331/420/420
f 336/421/421 11/23/23 17/22/22
f 336/421/421 492/422/422 337/419/419
f 339/423/423 17/22/22 23/29/29
f 343/424/424 342/426/426 341/436/436
f 341/436/436 460/596/596 343/424/424
f 529/580/580 528/138/138 341/436/436 354/435/435
f 345/427/427 348/429/429 171/232/232
f 346/597/597 612/574/574 558/598/598
f 463/431/431 498/351/351 497/592/592
f 347/432/432 462/433/433 543/599/599
f 346/597/597 359/600/600 357/438/438 344/428/428
f 342/426/426 567/425/425 355/601/601
f 342/426/426 355/601/601 353/434/434
f 348/429/429 358/439/439 513/437/437
f 376/602/602 371/458/458 370/461/461 375/470/470
f 359/600/600 346/597/597 558/598/598
f 350/441/441 499/447/447 498/351/351
f 349/442/442 350/441/441 351/430/430
f 351/430/430 352/603/603 349/442/442
f 351/430/430 347/432/432 352/603/603
f 352/603/603 347/432/432 543/599/599
f 352/603/603 544/443/443 349/442/442
f 353/434/434 426/445/445 354/435/435
f 353/434/434 355/601/601 356/444/444
f 358/439/439 363/455/455 514/280/280
f 358/439/439 357/438/438 559/456/456
f 357/438/438 359/600/600 559/456/456
f 360/446/446 500/337/337 499/447/447
f 361/440/440 360/446/446 350/441/441
f 360/446/446 361/440/440 546/449/449
f 361/440/440 544/443/443 545/448/448
f 362/450/450 365/453/453 530/378/378
f 530/378/378 502/377/377 362/450/450
f 365/453/453 371/458/458 531/595/595
f 531/595/595 530/378/378 365/453/453
f 568/452/452 372/604/604 364/457/457
f 366/454/454 559/456/456 368/605/605
f 369/460/460 501/468/468 500/337/337
f 546/449/449 369/460/460 500/337/337
f 515/76/76 506/524/524 373/464/464 382/606/606
f 371/458/458 376/602/602 532/594/594
f 532/594/594 531/595/595 371/458/458
f 370/461/461 364/457/457 372/604/604
f 370/461/461 378/471/471 375/470/470
f 370/461/461 372/604/604 378/471/471
f 373/464/464 379/465/465 382/606/606
f 377/474/474 376/602/602 375/470/470 381/472/472
f 374/467/467 502/377/377 501/468/468
f 369/460/460 609/459/459 374/467/467
f 389/607/607 382/606/606 379/465/465 388/478/478
f 376/602/602 377/474/474 533/399/399
f 533/399/399 532/594/594 376/602/602
f 381/472/472 378/471/471 569/476/476
f 380/466/466 362/450/450 502/377/377
f 380/466/466 547/469/469 548/451/451
f 380/466/466 548/451/451 362/450/450
f 381/472/472 386/477/477 387/475/475
f 387/475/475 377/474/474 381/472/472
f 549/483/483 384/481/481 403/482/482 571/608/608
f 382/606/606 389/607/607 516/77/77
f 516/77/77 515/76/76 382/606/606
f 383/473/473 560/463/463 561/487/487
f 385/480/480 503/57/57 536/577/577
f 392/500/500 389/607/607 388/478/478 391/488/488
f 386/477/477 398/485/485 387/475/475
f 534/400/400 533/399/399 387/475/475
f 386/477/477 569/476/476 570/484/484
f 517/498/498 516/77/77 389/607/607 392/500/500
f 394/492/492 395/491/491 405/503/503 406/502/502
f 390/486/486 401/490/490 391/488/488
f 390/486/486 561/487/487 562/489/489
f 393/479/479 394/492/492 385/480/480
f 393/479/479 549/483/483 395/491/491
f 397/493/493 387/475/475 398/485/485
f 396/495/495 398/485/485 570/484/484
f 400/496/496 392/500/500 391/488/488
f 399/499/499 391/488/488 401/490/490
f 536/577/577 535/494/494 397/493/493 385/480/480
f 394/492/492 504/42/42 503/57/57
f 571/608/608 403/482/482 396/495/495 570/484/484
f 399/499/499 408/509/509 409/505/505 400/496/496
f 406/502/502 405/503/503 410/522/522 411/518/518
f 408/509/509 399/499/499 404/506/506
f 404/506/506 563/501/501 613/609/609
f 504/42/42 406/502/502 411/518/518 606/517/517
f 413/512/512 409/505/505 408/509/509 414/508/508
f 405/503/503 407/507/507 410/522/522
f 414/508/508 404/506/506 613/609/609 564/513/513
f 409/505/505 413/512/512 519/111/111
f 521/194/194 520/112/112 413/512/512 420/511/511
f 407/507/507 550/519/519 410/522/522
f 411/518/518 410/522/522 415/521/521 416/516/516
f 520/112/112 519/111/111 413/512/512
f 416/516/516 505/86/86 606/517/517
f 415/521/521 417/515/515 416/516/516
f 425/528/528 424/531/531 428/535/535 429/530/530
f 417/515/515 415/521/521 418/525/525
f 415/521/521 551/520/520 418/525/525
f 419/523/523 506/524/524 505/86/86
f 417/515/515 418/525/525 419/523/523
f 419/523/523 552/462/462 373/464/464
f 412/510/510 421/514/514 422/526/526
f 423/529/529 425/528/528 422/526/526
f 422/526/526 507/182/182 521/194/194
f 423/529/529 553/527/527 610/610/610
f 354/435/435 427/533/533 493/537/537 529/580/580
f 423/529/529 610/610/610 424/531/531
f 424/531/531 610/610/610 611/534/534
f 427/533/533 354/435/435 426/445/445
f 429/530/530 431/541/541 435/543/543 433/540/540
f 429/530/530 508/213/213 507/182/182
f 430/536/536 494/319/319 493/537/537
f 432/538/538 430/536/536 427/533/533
f 427/533/533 538/532/532 432/538/538
f 494/319/319 430/536/536 437/549/549 604/587/587
f 433/540/540 607/215/215 508/213/213
f 438/544/544 437/549/549 430/536/536
f 438/544/544 432/538/538 539/539/539 540/611/611
f 509/585/585 441/545/545 447/552/552 510/217/217
f 434/547/547 435/543/543 555/546/546
f 439/550/550 438/544/544 540/611/611
f 440/551/551 444/554/554 523/220/220
f 523/220/220 510/217/217 440/551/551
f 565/553/553 445/612/612 444/554/554
f 446/555/555 447/552/552 441/545/545
f 604/587/587 437/549/549 442/557/557 495/586/586
f 441/545/545 509/585/585 607/215/215
f 446/555/555 434/547/547 556/556/556
f 541/613/613 448/560/560 439/550/550 540/611/611
f 442/557/557 439/550/550 448/560/560
f 565/553/553 440/551/551 447/552/552 556/556/556
f 444/554/554 449/559/559 524/583/583
f 524/583/583 523/220/220 444/554/554
f 443/558/558 444/554/554 445/612/612
f 445/612/612 566/564/564 443/558/558
f 542/570/570 452/561/561 448/560/560 541/613/613
f 452/561/561 496/250/250 442/557/557
f 442/557/557 496/250/250 495/586/586
f 525/584/584 524/583/583 449/559/559 454/563/563
f 572/614/614 450/566/566 557/569/569 612/574/574
f 443/558/558 614/565/565 453/562/562
f 451/255/255 457/567/567 511/244/244
f 450/566/566 572/614/614 457/567/567
f 450/566/566 451/255/255 557/569/569
f 456/615/615 454/563/563 453/562/562 455/573/573
f 458/571/571 605/253/253 496/250/250
f 496/250/250 452/561/561 458/571/571
f 526/579/579 525/584/584 454/563/563 456/615/615
f 456/615/615 460/596/596 527/137/137 526/579/579
f 572/614/614 461/575/575 457/567/567
f 512/245/245 511/244/244 457/567/567
f 572/614/614 612/574/574 461/575/575
f 459/568/568 605/253/253 458/571/571
f 458/571/571 542/570/570 459/568/568
f 460/596/596 456/615/615 455/573/573
f 455/573/573 615/572/572 567/425/425
f 455/573/573 343/424/424 460/596/596
f 461/575/575 344/428/428 345/427/427
f 345/427/427 457/567/567 461/575/575
f 612/574/574 346/597/597 344/428/428
f 463/431/431 497/592/592 367/284/284
f 462/433/433 366/454/454 368/605/605
f 368/605/605 543/599/599 462/433/433
